RawData/cable/NewFile1.csv

X,CH1,CH2,Start,Increment,
Sequence,Volt,Volt,-2.620000e-08,1.000000e-10
0,0.00e+00,4.00e-02,
1,0.00e+00,4.00e-02,
2,0.00e+00,4.00e-02,
3,0.00e+00,4.00e-02,
4,0.00e+00,4.00e-02,
5,0.00e+00,4.00e-02,
6,0.00e+00,4.00e-02,
7,0.00e+00,4.00e-02,
8,0.00e+00,4.00e-02,
9,0.00e+00,4.00e-02,
10,0.00e+00,4.00e-02,
11,0.00e+00,4.00e-02,
12,0.00e+00,4.00e-02,
13,0.00e+00,4.00e-02,
14,0.00e+00,4.00e-02,
15,0.00e+00,4.00e-02,
16,0.00e+00,4.00e-02,
17,0.00e+00,4.00e-02,
18,0.00e+00,4.00e-02,
19,0.00e+00,4.00e-02,
20,0.00e+00,4.00e-02,
21,0.00e+00,4.00e-02,
22,0.00e+00,4.00e-02,
23,0.00e+00,4.00e-02,
24,0.00e+00,4.00e-02,
25,0.00e+00,4.00e-02,
26,0.00e+00,4.00e-02,
27,0.00e+00,4.00e-02,
28,0.00e+00,4.00e-02,
29,0.00e+00,4.00e-02,
30,0.00e+00,4.00e-02,
31,0.00e+00,4.00e-02,
32,0.00e+00,4.00e-02,
33,0.00e+00,4.00e-02,
34,0.00e+00,4.00e-02,
35,0.00e+00,4.00e-02,
36,0.00e+00,4.00e-02,
37,0.00e+00,4.00e-02,
38,0.00e+00,4.00e-02,
39,0.00e+00,4.00e-02,
40,0.00e+00,0.00e+00,
41,0.00e+00,0.00e+00,
42,0.00e+00,4.00e-02,
43,0.00e+00,4.00e-02,
44,0.00e+00,4.00e-02,
45,0.00e+00,4.00e-02,
46,0.00e+00,4.00e-02,
47,0.00e+00,4.00e-02,
48,0.00e+00,4.00e-02,
49,0.00e+00,4.00e-02,
50,0.00e+00,4.00e-02,
51,0.00e+00,4.00e-02,
52,0.00e+00,4.00e-02,
53,0.00e+00,4.00e-02,
54,0.00e+00,4.00e-02,
55,0.00e+00,4.00e-02,
56,0.00e+00,4.00e-02,
57,0.00e+00,4.00e-02,
58,0.00e+00,4.00e-02,
59,0.00e+00,4.00e-02,
60,0.00e+00,4.00e-02,
61,0.00e+00,4.00e-02,
62,0.00e+00,4.00e-02,
63,0.00e+00,4.00e-02,
64,-4.00e-02,4.00e-02,
65,-4.00e-02,4.00e-02,
66,0.00e+00,4.00e-02,
67,0.00e+00,4.00e-02,
68,0.00e+00,4.00e-02,
69,0.00e+00,4.00e-02,
70,0.00e+00,4.00e-02,
71,0.00e+00,4.00e-02,
72,0.00e+00,4.00e-02,
73,0.00e+00,4.00e-02,
74,0.00e+00,4.00e-02,
75,0.00e+00,4.00e-02,
76,0.00e+00,4.00e-02,
77,0.00e+00,4.00e-02,
78,0.00e+00,4.00e-02,
79,0.00e+00,4.00e-02,
80,0.00e+00,4.00e-02,
81,0.00e+00,4.00e-02,
82,0.00e+00,4.00e-02,
83,0.00e+00,4.00e-02,
84,0.00e+00,4.00e-02,
85,0.00e+00,4.00e-02,
86,0.00e+00,4.00e-02,
87,0.00e+00,4.00e-02,
88,0.00e+00,4.00e-02,
89,0.00e+00,4.00e-02,
90,0.00e+00,4.00e-02,
91,0.00e+00,4.00e-02,
92,0.00e+00,4.00e-02,
93,0.00e+00,4.00e-02,
94,0.00e+00,0.00e+00,
95,0.00e+00,0.00e+00,
96,0.00e+00,4.00e-02,
97,0.00e+00,4.00e-02,
98,0.00e+00,4.00e-02,
99,0.00e+00,4.00e-02,
100,0.00e+00,4.00e-02,
101,0.00e+00,4.00e-02,
102,0.00e+00,4.00e-02,
103,0.00e+00,4.00e-02,
104,-4.00e-02,4.00e-02,
105,-4.00e-02,4.00e-02,
106,-4.00e-02,4.00e-02,
107,-4.00e-02,4.00e-02,
108,-4.00e-02,4.00e-02,
109,-4.00e-02,4.00e-02,
110,-4.00e-02,4.00e-02,
111,-4.00e-02,4.00e-02,
112,0.00e+00,4.00e-02,
113,0.00e+00,4.00e-02,
114,0.00e+00,4.00e-02,
115,0.00e+00,4.00e-02,
116,0.00e+00,4.00e-02,
117,0.00e+00,4.00e-02,
118,0.00e+00,0.00e+00,
119,0.00e+00,0.00e+00,
120,0.00e+00,4.00e-02,
121,0.00e+00,4.00e-02,
122,0.00e+00,4.00e-02,
123,0.00e+00,4.00e-02,
124,-4.00e-02,4.00e-02,
125,-4.00e-02,4.00e-02,
126,0.00e+00,4.00e-02,
127,0.00e+00,4.00e-02,
128,0.00e+00,4.00e-02,
129,0.00e+00,4.00e-02,
130,0.00e+00,4.00e-02,
131,0.00e+00,4.00e-02,
132,0.00e+00,4.00e-02,
133,0.00e+00,4.00e-02,
134,0.00e+00,4.00e-02,
135,0.00e+00,4.00e-02,
136,0.00e+00,4.00e-02,
137,0.00e+00,4.00e-02,
138,0.00e+00,4.00e-02,
139,0.00e+00,4.00e-02,
140,0.00e+00,4.00e-02,
141,0.00e+00,4.00e-02,
142,0.00e+00,4.00e-02,
143,0.00e+00,4.00e-02,
144,0.00e+00,4.00e-02,
145,0.00e+00,4.00e-02,
146,0.00e+00,4.00e-02,
147,0.00e+00,4.00e-02,
148,0.00e+00,4.00e-02,
149,0.00e+00,4.00e-02,
150,0.00e+00,4.00e-02,
151,0.00e+00,4.00e-02,
152,0.00e+00,4.00e-02,
153,0.00e+00,4.00e-02,
154,0.00e+00,4.00e-02,
155,0.00e+00,4.00e-02,
156,0.00e+00,4.00e-02,
157,0.00e+00,4.00e-02,
158,0.00e+00,4.00e-02,
159,0.00e+00,4.00e-02,
160,0.00e+00,4.00e-02,
161,0.00e+00,4.00e-02,
162,0.00e+00,4.00e-02,
163,0.00e+00,4.00e-02,
164,0.00e+00,4.00e-02,
165,0.00e+00,4.00e-02,
166,0.00e+00,4.00e-02,
167,0.00e+00,4.00e-02,
168,0.00e+00,4.00e-02,
169,0.00e+00,4.00e-02,
170,0.00e+00,4.00e-02,
171,0.00e+00,4.00e-02,
172,0.00e+00,4.00e-02,
173,0.00e+00,4.00e-02,
174,0.00e+00,0.00e+00,
175,0.00e+00,0.00e+00,
176,0.00e+00,0.00e+00,
177,0.00e+00,0.00e+00,
178,0.00e+00,0.00e+00,
179,0.00e+00,0.00e+00,
180,0.00e+00,4.00e-02,
181,0.00e+00,4.00e-02,
182,0.00e+00,4.00e-02,
183,0.00e+00,4.00e-02,
184,0.00e+00,4.00e-02,
185,0.00e+00,4.00e-02,
186,0.00e+00,4.00e-02,
187,0.00e+00,4.00e-02,
188,0.00e+00,4.00e-02,
189,0.00e+00,4.00e-02,
190,0.00e+00,4.00e-02,
191,0.00e+00,4.00e-02,
192,0.00e+00,4.00e-02,
193,0.00e+00,4.00e-02,
194,0.00e+00,4.00e-02,
195,0.00e+00,4.00e-02,
196,0.00e+00,4.00e-02,
197,0.00e+00,4.00e-02,
198,0.00e+00,4.00e-02,
199,0.00e+00,4.00e-02,
200,0.00e+00,4.00e-02,
201,0.00e+00,4.00e-02,
202,0.00e+00,4.00e-02,
203,0.00e+00,4.00e-02,
204,0.00e+00,4.00e-02,
205,0.00e+00,4.00e-02,
206,0.00e+00,4.00e-02,
207,0.00e+00,4.00e-02,
208,0.00e+00,4.00e-02,
209,0.00e+00,4.00e-02,
210,0.00e+00,4.00e-02,
211,0.00e+00,4.00e-02,
212,0.00e+00,4.00e-02,
213,0.00e+00,4.00e-02,
214,0.00e+00,4.00e-02,
215,0.00e+00,4.00e-02,
216,0.00e+00,4.00e-02,
217,0.00e+00,4.00e-02,
218,0.00e+00,4.00e-02,
219,0.00e+00,4.00e-02,
220,0.00e+00,4.00e-02,
221,0.00e+00,4.00e-02,
222,0.00e+00,4.00e-02,
223,0.00e+00,4.00e-02,
224,0.00e+00,4.00e-02,
225,0.00e+00,4.00e-02,
226,0.00e+00,4.00e-02,
227,0.00e+00,4.00e-02,
228,0.00e+00,4.00e-02,
229,0.00e+00,4.00e-02,
230,0.00e+00,4.00e-02,
231,0.00e+00,4.00e-02,
232,0.00e+00,4.00e-02,
233,0.00e+00,4.00e-02,
234,0.00e+00,4.00e-02,
235,0.00e+00,4.00e-02,
236,-8.00e-02,4.00e-02,
237,-8.00e-02,4.00e-02,
238,-8.00e-02,4.00e-02,
239,-8.00e-02,4.00e-02,
240,-1.20e-01,0.00e+00,
241,-1.20e-01,0.00e+00,
242,-1.20e-01,0.00e+00,
243,-1.20e-01,0.00e+00,
244,-2.40e-01,-4.00e-02,
245,-2.40e-01,-4.00e-02,
246,-2.40e-01,-8.00e-02,
247,-2.40e-01,-8.00e-02,
248,-3.60e-01,-1.20e-01,
249,-3.60e-01,-1.20e-01,
250,-3.60e-01,-1.20e-01,
251,-3.60e-01,-1.20e-01,
252,-5.60e-01,-2.40e-01,
253,-5.60e-01,-2.40e-01,
254,-5.60e-01,-2.40e-01,
255,-5.60e-01,-2.40e-01,
256,-7.60e-01,-4.00e-01,
257,-7.60e-01,-4.00e-01,
258,-7.60e-01,-4.00e-01,
259,-7.60e-01,-4.00e-01,
260,-1.00e+00,-6.40e-01,
261,-1.00e+00,-6.40e-01,
262,-1.00e+00,-6.40e-01,
263,-1.00e+00,-6.40e-01,
264,-1.20e+00,-8.00e-01,
265,-1.20e+00,-8.00e-01,
266,-1.20e+00,-8.00e-01,
267,-1.20e+00,-8.00e-01,
268,-1.40e+00,-1.04e+00,
269,-1.40e+00,-1.04e+00,
270,-1.36e+00,-1.04e+00,
271,-1.36e+00,-1.04e+00,
272,-1.52e+00,-1.20e+00,
273,-1.52e+00,-1.20e+00,
274,-1.52e+00,-1.20e+00,
275,-1.52e+00,-1.20e+00,
276,-1.64e+00,-1.36e+00,
277,-1.64e+00,-1.36e+00,
278,-1.64e+00,-1.36e+00,
279,-1.64e+00,-1.36e+00,
280,-1.72e+00,-1.52e+00,
281,-1.72e+00,-1.52e+00,
282,-1.72e+00,-1.52e+00,
283,-1.72e+00,-1.52e+00,
284,-1.80e+00,-1.64e+00,
285,-1.80e+00,-1.64e+00,
286,-1.80e+00,-1.64e+00,
287,-1.80e+00,-1.64e+00,
288,-1.80e+00,-1.68e+00,
289,-1.80e+00,-1.68e+00,
290,-1.76e+00,-1.68e+00,
291,-1.76e+00,-1.68e+00,
292,-1.80e+00,-1.72e+00,
293,-1.80e+00,-1.72e+00,
294,-1.80e+00,-1.72e+00,
295,-1.80e+00,-1.72e+00,
296,-1.88e+00,-1.76e+00,
297,-1.88e+00,-1.76e+00,
298,-1.84e+00,-1.76e+00,
299,-1.84e+00,-1.76e+00,
300,-1.88e+00,-1.80e+00,
301,-1.88e+00,-1.80e+00,
302,-1.88e+00,-1.80e+00,
303,-1.88e+00,-1.80e+00,
304,-1.88e+00,-1.80e+00,
305,-1.88e+00,-1.80e+00,
306,-1.88e+00,-1.84e+00,
307,-1.88e+00,-1.84e+00,
308,-1.92e+00,-1.84e+00,
309,-1.92e+00,-1.84e+00,
310,-1.88e+00,-1.84e+00,
311,-1.88e+00,-1.84e+00,
312,-1.96e+00,-1.84e+00,
313,-1.96e+00,-1.84e+00,
314,-1.96e+00,-1.84e+00,
315,-1.96e+00,-1.84e+00,
316,-1.96e+00,-1.84e+00,
317,-1.96e+00,-1.84e+00,
318,-1.96e+00,-1.80e+00,
319,-1.96e+00,-1.80e+00,
320,-1.96e+00,-1.80e+00,
321,-1.96e+00,-1.80e+00,
322,-1.96e+00,-1.80e+00,
323,-1.96e+00,-1.80e+00,
324,-1.96e+00,-1.80e+00,
325,-1.96e+00,-1.80e+00,
326,-1.96e+00,-1.84e+00,
327,-1.96e+00,-1.84e+00,
328,-1.96e+00,-1.84e+00,
329,-1.96e+00,-1.84e+00,
330,-1.96e+00,-1.84e+00,
331,-1.96e+00,-1.84e+00,
332,-1.96e+00,-1.80e+00,
333,-1.96e+00,-1.80e+00,
334,-1.92e+00,-1.80e+00,
335,-1.92e+00,-1.80e+00,
336,-1.96e+00,-1.80e+00,
337,-1.96e+00,-1.80e+00,
338,-1.96e+00,-1.80e+00,
339,-1.96e+00,-1.80e+00,
340,-1.96e+00,-1.80e+00,
341,-1.96e+00,-1.80e+00,
342,-1.96e+00,-1.80e+00,
343,-1.96e+00,-1.80e+00,
344,-1.96e+00,-1.80e+00,
345,-1.96e+00,-1.80e+00,
346,-1.92e+00,-1.80e+00,
347,-1.92e+00,-1.80e+00,
348,-1.92e+00,-1.80e+00,
349,-1.92e+00,-1.80e+00,
350,-1.92e+00,-1.80e+00,
351,-1.92e+00,-1.80e+00,
352,-1.96e+00,-1.80e+00,
353,-1.96e+00,-1.80e+00,
354,-1.92e+00,-1.84e+00,
355,-1.92e+00,-1.84e+00,
356,-1.96e+00,-1.84e+00,
357,-1.96e+00,-1.84e+00,
358,-1.92e+00,-1.80e+00,
359,-1.92e+00,-1.80e+00,
360,-1.88e+00,-1.84e+00,
361,-1.88e+00,-1.84e+00,
362,-1.88e+00,-1.84e+00,
363,-1.88e+00,-1.84e+00,
364,-1.92e+00,-1.80e+00,
365,-1.92e+00,-1.80e+00,
366,-1.88e+00,-1.80e+00,
367,-1.88e+00,-1.80e+00,
368,-1.92e+00,-1.80e+00,
369,-1.92e+00,-1.80e+00,
370,-1.88e+00,-1.80e+00,
371,-1.88e+00,-1.80e+00,
372,-1.88e+00,-1.80e+00,
373,-1.88e+00,-1.80e+00,
374,-1.92e+00,-1.80e+00,
375,-1.92e+00,-1.80e+00,
376,-1.88e+00,-1.84e+00,
377,-1.88e+00,-1.84e+00,
378,-1.88e+00,-1.84e+00,
379,-1.88e+00,-1.84e+00,
380,-1.92e+00,-1.80e+00,
381,-1.92e+00,-1.80e+00,
382,-1.88e+00,-1.80e+00,
383,-1.88e+00,-1.80e+00,
384,-1.92e+00,-1.80e+00,
385,-1.92e+00,-1.80e+00,
386,-1.96e+00,-1.84e+00,
387,-1.96e+00,-1.84e+00,
388,-1.96e+00,-1.80e+00,
389,-1.96e+00,-1.80e+00,
390,-1.96e+00,-1.80e+00,
391,-1.96e+00,-1.80e+00,
392,-1.96e+00,-1.80e+00,
393,-1.96e+00,-1.80e+00,
394,-1.96e+00,-1.80e+00,
395,-1.96e+00,-1.80e+00,
396,-1.96e+00,-1.80e+00,
397,-1.96e+00,-1.80e+00,
398,-1.96e+00,-1.80e+00,
399,-1.96e+00,-1.80e+00,
400,-1.96e+00,-1.84e+00,
401,-1.96e+00,-1.84e+00,
402,-1.96e+00,-1.88e+00,
403,-1.96e+00,-1.88e+00,
404,-1.92e+00,-1.84e+00,
405,-1.92e+00,-1.84e+00,
406,-1.96e+00,-1.84e+00,
407,-1.96e+00,-1.84e+00,
408,-1.96e+00,-1.88e+00,
409,-1.96e+00,-1.88e+00,
410,-1.96e+00,-1.88e+00,
411,-1.96e+00,-1.88e+00,
412,-1.96e+00,-1.84e+00,
413,-1.96e+00,-1.84e+00,
414,-1.96e+00,-1.88e+00,
415,-1.96e+00,-1.88e+00,
416,-1.96e+00,-1.84e+00,
417,-1.96e+00,-1.84e+00,
418,-1.92e+00,-1.84e+00,
419,-1.92e+00,-1.84e+00,
420,-1.96e+00,-1.92e+00,
421,-1.96e+00,-1.92e+00,
422,-1.92e+00,-1.92e+00,
423,-1.92e+00,-1.92e+00,
424,-1.96e+00,-1.88e+00,
425,-1.96e+00,-1.88e+00,
426,-2.00e+00,-1.92e+00,
427,-2.00e+00,-1.92e+00,
428,-2.00e+00,-1.92e+00,
429,-2.00e+00,-1.92e+00,
430,-2.00e+00,-1.88e+00,
431,-2.00e+00,-1.88e+00,
432,-1.96e+00,-1.92e+00,
433,-1.96e+00,-1.92e+00,
434,-2.00e+00,-1.92e+00,
435,-2.00e+00,-1.92e+00,
436,-2.00e+00,-1.88e+00,
437,-2.00e+00,-1.88e+00,
438,-2.00e+00,-1.92e+00,
439,-2.00e+00,-1.92e+00,
440,-2.00e+00,-1.92e+00,
441,-2.00e+00,-1.92e+00,
442,-2.00e+00,-1.92e+00,
443,-2.00e+00,-1.92e+00,
444,-2.00e+00,-1.92e+00,
445,-2.00e+00,-1.92e+00,
446,-2.00e+00,-1.92e+00,
447,-2.00e+00,-1.92e+00,
448,-2.00e+00,-1.92e+00,
449,-2.00e+00,-1.92e+00,
450,-2.00e+00,-1.92e+00,
451,-2.00e+00,-1.92e+00,
452,-1.96e+00,-1.92e+00,
453,-1.96e+00,-1.92e+00,
454,-2.00e+00,-1.92e+00,
455,-2.00e+00,-1.92e+00,
456,-2.00e+00,-1.92e+00,
457,-2.00e+00,-1.92e+00,
458,-2.00e+00,-1.92e+00,
459,-2.00e+00,-1.92e+00,
460,-2.00e+00,-1.92e+00,
461,-2.00e+00,-1.92e+00,
462,-1.96e+00,-1.92e+00,
463,-1.96e+00,-1.92e+00,
464,-2.00e+00,-1.92e+00,
465,-2.00e+00,-1.92e+00,
466,-2.04e+00,-1.92e+00,
467,-2.04e+00,-1.92e+00,
468,-2.04e+00,-1.92e+00,
469,-2.04e+00,-1.92e+00,
470,-2.04e+00,-1.92e+00,
471,-2.04e+00,-1.92e+00,
472,-2.04e+00,-1.92e+00,
473,-2.04e+00,-1.92e+00,
474,-2.04e+00,-1.92e+00,
475,-2.04e+00,-1.92e+00,
476,-2.04e+00,-1.88e+00,
477,-2.04e+00,-1.88e+00,
478,-2.04e+00,-1.92e+00,
479,-2.04e+00,-1.92e+00,
480,-2.04e+00,-1.92e+00,
481,-2.04e+00,-1.92e+00,
482,-2.00e+00,-1.92e+00,
483,-2.00e+00,-1.92e+00,
484,-1.96e+00,-1.88e+00,
485,-1.96e+00,-1.88e+00,
486,-1.96e+00,-1.92e+00,
487,-1.96e+00,-1.92e+00,
488,-1.96e+00,-1.92e+00,
489,-1.96e+00,-1.92e+00,
490,-2.00e+00,-1.92e+00,
491,-2.00e+00,-1.92e+00,
492,-2.00e+00,-1.92e+00,
493,-2.00e+00,-1.92e+00,
494,-2.00e+00,-1.92e+00,
495,-2.00e+00,-1.92e+00,
496,-2.00e+00,-1.92e+00,
497,-2.00e+00,-1.92e+00,
498,-2.00e+00,-1.88e+00,
499,-2.00e+00,-1.88e+00,
500,-2.00e+00,-1.92e+00,
501,-2.00e+00,-1.92e+00,
502,-2.00e+00,-1.92e+00,
503,-2.00e+00,-1.92e+00,
504,-2.00e+00,-1.88e+00,
505,-2.00e+00,-1.88e+00,
506,-1.96e+00,-1.92e+00,
507,-1.96e+00,-1.92e+00,
508,-1.96e+00,-1.92e+00,
509,-1.96e+00,-1.92e+00,
510,-1.96e+00,-1.88e+00,
511,-1.96e+00,-1.88e+00,
512,-2.00e+00,-1.88e+00,
513,-2.00e+00,-1.88e+00,
514,-2.00e+00,-1.92e+00,
515,-2.00e+00,-1.92e+00,
516,-2.00e+00,-1.88e+00,
517,-2.00e+00,-1.88e+00,
518,-1.96e+00,-1.92e+00,
519,-1.96e+00,-1.92e+00,
520,-1.96e+00,-1.92e+00,
521,-1.96e+00,-1.92e+00,
522,-1.96e+00,-1.92e+00,
523,-1.96e+00,-1.92e+00,
524,-2.00e+00,-1.92e+00,
525,-2.00e+00,-1.92e+00,
526,-2.00e+00,-1.92e+00,
527,-2.00e+00,-1.92e+00,
528,-1.96e+00,-1.92e+00,
529,-1.96e+00,-1.92e+00,
530,-2.00e+00,-1.92e+00,
531,-2.00e+00,-1.92e+00,
532,-2.00e+00,-1.88e+00,
533,-2.00e+00,-1.88e+00,
534,-1.96e+00,-1.92e+00,
535,-1.96e+00,-1.92e+00,
536,-2.00e+00,-1.88e+00,
537,-2.00e+00,-1.88e+00,
538,-2.00e+00,-1.92e+00,
539,-2.00e+00,-1.92e+00,
540,-2.00e+00,-1.88e+00,
541,-2.00e+00,-1.88e+00,
542,-2.00e+00,-1.92e+00,
543,-2.00e+00,-1.92e+00,
544,-2.00e+00,-1.92e+00,
545,-2.00e+00,-1.92e+00,
546,-2.00e+00,-1.92e+00,
547,-2.00e+00,-1.92e+00,
548,-2.00e+00,-1.92e+00,
549,-2.00e+00,-1.92e+00,
550,-2.00e+00,-1.92e+00,
551,-2.00e+00,-1.92e+00,
552,-2.00e+00,-1.88e+00,
553,-2.00e+00,-1.88e+00,
554,-2.00e+00,-1.88e+00,
555,-2.00e+00,-1.88e+00,
556,-1.96e+00,-1.88e+00,
557,-1.96e+00,-1.88e+00,
558,-1.96e+00,-1.92e+00,
559,-1.96e+00,-1.92e+00,
560,-1.92e+00,-1.88e+00,
561,-1.92e+00,-1.88e+00,
562,-1.92e+00,-1.92e+00,
563,-1.92e+00,-1.92e+00,
564,-1.84e+00,-1.84e+00,
565,-1.84e+00,-1.84e+00,
566,-1.84e+00,-1.84e+00,
567,-1.84e+00,-1.84e+00,
568,-1.68e+00,-1.76e+00,
569,-1.68e+00,-1.76e+00,
570,-1.68e+00,-1.76e+00,
571,-1.68e+00,-1.76e+00,
572,-1.56e+00,-1.68e+00,
573,-1.56e+00,-1.68e+00,
574,-1.52e+00,-1.68e+00,
575,-1.52e+00,-1.68e+00,
576,-1.36e+00,-1.56e+00,
577,-1.36e+00,-1.56e+00,
578,-1.36e+00,-1.52e+00,
579,-1.36e+00,-1.52e+00,
580,-1.20e+00,-1.44e+00,
581,-1.20e+00,-1.44e+00,
582,-1.20e+00,-1.40e+00,
583,-1.20e+00,-1.40e+00,
584,-1.04e+00,-1.20e+00,
585,-1.04e+00,-1.20e+00,
586,-1.00e+00,-1.20e+00,
587,-1.00e+00,-1.20e+00,
588,-8.40e-01,-1.00e+00,
589,-8.40e-01,-1.00e+00,
590,-8.40e-01,-1.00e+00,
591,-8.40e-01,-1.00e+00,
592,-6.80e-01,-8.40e-01,
593,-6.80e-01,-8.40e-01,
594,-6.80e-01,-8.40e-01,
595,-6.80e-01,-8.40e-01,
596,-5.20e-01,-6.80e-01,
597,-5.20e-01,-6.80e-01,
598,-5.20e-01,-6.80e-01,
599,-5.20e-01,-6.80e-01,
600,-4.00e-01,-5.20e-01,
601,-4.00e-01,-5.20e-01,
602,-4.00e-01,-5.20e-01,
603,-4.00e-01,-5.20e-01,
604,-2.80e-01,-4.00e-01,
605,-2.80e-01,-4.00e-01,
606,-2.40e-01,-4.00e-01,
607,-2.40e-01,-4.00e-01,
608,-1.60e-01,-2.40e-01,
609,-1.60e-01,-2.40e-01,
610,-1.60e-01,-2.00e-01,
611,-1.60e-01,-2.00e-01,
612,-1.20e-01,-1.60e-01,
613,-1.20e-01,-1.60e-01,
614,-1.20e-01,-1.60e-01,
615,-1.20e-01,-1.60e-01,
616,-1.20e-01,-8.00e-02,
617,-1.20e-01,-8.00e-02,
618,-8.00e-02,-8.00e-02,
619,-8.00e-02,-8.00e-02,
620,-8.00e-02,-4.00e-02,
621,-8.00e-02,-4.00e-02,
622,-1.20e-01,0.00e+00,
623,-1.20e-01,0.00e+00,
624,-4.00e-02,0.00e+00,
625,-4.00e-02,0.00e+00,
626,-4.00e-02,0.00e+00,
627,-4.00e-02,0.00e+00,
628,-4.00e-02,4.00e-02,
629,-4.00e-02,4.00e-02,
630,-4.00e-02,4.00e-02,
631,-4.00e-02,4.00e-02,
632,-4.00e-02,4.00e-02,
633,-4.00e-02,4.00e-02,
634,-4.00e-02,4.00e-02,
635,-4.00e-02,4.00e-02,
636,-8.00e-02,4.00e-02,
637,-8.00e-02,4.00e-02,
638,-8.00e-02,4.00e-02,
639,-8.00e-02,4.00e-02,
640,-8.00e-02,0.00e+00,
641,-8.00e-02,0.00e+00,
642,-4.00e-02,-4.00e-02,
643,-4.00e-02,-4.00e-02,
644,-4.00e-02,-4.00e-02,
645,-4.00e-02,-4.00e-02,
646,-8.00e-02,-4.00e-02,
647,-8.00e-02,-4.00e-02,
648,-4.00e-02,0.00e+00,
649,-4.00e-02,0.00e+00,
650,-4.00e-02,0.00e+00,
651,-4.00e-02,0.00e+00,
652,-4.00e-02,0.00e+00,
653,-4.00e-02,0.00e+00,
654,-8.00e-02,0.00e+00,
655,-8.00e-02,0.00e+00,
656,-4.00e-02,0.00e+00,
657,-4.00e-02,0.00e+00,
658,-4.00e-02,0.00e+00,
659,-4.00e-02,0.00e+00,
660,-8.00e-02,0.00e+00,
661,-8.00e-02,0.00e+00,
662,-8.00e-02,0.00e+00,
663,-8.00e-02,0.00e+00,
664,-4.00e-02,0.00e+00,
665,-4.00e-02,0.00e+00,
666,-4.00e-02,0.00e+00,
667,-4.00e-02,0.00e+00,
668,-4.00e-02,0.00e+00,
669,-4.00e-02,0.00e+00,
670,-4.00e-02,0.00e+00,
671,-4.00e-02,0.00e+00,
672,-8.00e-02,0.00e+00,
673,-8.00e-02,0.00e+00,
674,-8.00e-02,0.00e+00,
675,-8.00e-02,0.00e+00,
676,-4.00e-02,-4.00e-02,
677,-4.00e-02,-4.00e-02,
678,-4.00e-02,0.00e+00,
679,-4.00e-02,0.00e+00,
680,-4.00e-02,0.00e+00,
681,-4.00e-02,0.00e+00,
682,-4.00e-02,0.00e+00,
683,-4.00e-02,0.00e+00,
684,-4.00e-02,0.00e+00,
685,-4.00e-02,0.00e+00,
686,-4.00e-02,0.00e+00,
687,-4.00e-02,0.00e+00,
688,-4.00e-02,0.00e+00,
689,-4.00e-02,0.00e+00,
690,-4.00e-02,0.00e+00,
691,-4.00e-02,0.00e+00,
692,-4.00e-02,0.00e+00,
693,-4.00e-02,0.00e+00,
694,-4.00e-02,0.00e+00,
695,-4.00e-02,0.00e+00,
696,-4.00e-02,0.00e+00,
697,-4.00e-02,0.00e+00,
698,-8.00e-02,0.00e+00,
699,-8.00e-02,0.00e+00,
700,-8.00e-02,-4.00e-02,
701,-8.00e-02,-4.00e-02,
702,-8.00e-02,0.00e+00,
703,-8.00e-02,0.00e+00,
704,-8.00e-02,0.00e+00,
705,-8.00e-02,0.00e+00,
706,-4.00e-02,-4.00e-02,
707,-4.00e-02,-4.00e-02,
708,-4.00e-02,-4.00e-02,
709,-4.00e-02,-4.00e-02,
710,-4.00e-02,0.00e+00,
711,-4.00e-02,0.00e+00,
712,-4.00e-02,0.00e+00,
713,-4.00e-02,0.00e+00,
714,-4.00e-02,0.00e+00,
715,-4.00e-02,0.00e+00,
716,-4.00e-02,0.00e+00,
717,-4.00e-02,0.00e+00,
718,-8.00e-02,0.00e+00,
719,-8.00e-02,0.00e+00,
720,-4.00e-02,0.00e+00,
721,-4.00e-02,0.00e+00,
722,-4.00e-02,0.00e+00,
723,-4.00e-02,0.00e+00,
724,0.00e+00,0.00e+00,
725,0.00e+00,0.00e+00,
726,0.00e+00,0.00e+00,
727,0.00e+00,0.00e+00,
728,0.00e+00,0.00e+00,
729,0.00e+00,0.00e+00,
730,0.00e+00,0.00e+00,
731,0.00e+00,0.00e+00,
732,0.00e+00,0.00e+00,
733,0.00e+00,0.00e+00,
734,0.00e+00,0.00e+00,
735,0.00e+00,0.00e+00,
736,0.00e+00,0.00e+00,
737,0.00e+00,0.00e+00,
738,0.00e+00,0.00e+00,
739,0.00e+00,0.00e+00,
740,0.00e+00,0.00e+00,
741,0.00e+00,0.00e+00,
742,0.00e+00,0.00e+00,
743,0.00e+00,0.00e+00,
744,0.00e+00,4.00e-02,
745,0.00e+00,4.00e-02,
746,0.00e+00,4.00e-02,
747,0.00e+00,4.00e-02,
748,0.00e+00,4.00e-02,
749,0.00e+00,4.00e-02,
750,0.00e+00,0.00e+00,
751,0.00e+00,0.00e+00,
752,-4.00e-02,0.00e+00,
753,-4.00e-02,0.00e+00,
754,-4.00e-02,0.00e+00,
755,-4.00e-02,0.00e+00,
756,0.00e+00,0.00e+00,
757,0.00e+00,0.00e+00,
758,0.00e+00,0.00e+00,
759,0.00e+00,0.00e+00,
760,0.00e+00,4.00e-02,
761,0.00e+00,4.00e-02,
762,0.00e+00,4.00e-02,
763,0.00e+00,4.00e-02,
764,-4.00e-02,4.00e-02,
765,-4.00e-02,4.00e-02,
766,0.00e+00,4.00e-02,
767,0.00e+00,4.00e-02,
768,0.00e+00,4.00e-02,
769,0.00e+00,4.00e-02,
770,0.00e+00,0.00e+00,
771,0.00e+00,0.00e+00,
772,0.00e+00,0.00e+00,
773,0.00e+00,0.00e+00,
774,0.00e+00,4.00e-02,
775,0.00e+00,4.00e-02,
776,0.00e+00,4.00e-02,
777,0.00e+00,4.00e-02,
778,0.00e+00,4.00e-02,
779,0.00e+00,4.00e-02,
780,0.00e+00,4.00e-02,
781,0.00e+00,4.00e-02,
782,0.00e+00,4.00e-02,
783,0.00e+00,4.00e-02,
784,0.00e+00,4.00e-02,
785,0.00e+00,4.00e-02,
786,0.00e+00,4.00e-02,
787,0.00e+00,4.00e-02,
788,0.00e+00,4.00e-02,
789,0.00e+00,4.00e-02,
790,-4.00e-02,4.00e-02,
791,-4.00e-02,4.00e-02,
792,-4.00e-02,4.00e-02,
793,-4.00e-02,4.00e-02,
794,0.00e+00,4.00e-02,
795,0.00e+00,4.00e-02,
796,0.00e+00,4.00e-02,
797,0.00e+00,4.00e-02,
798,0.00e+00,0.00e+00,
799,0.00e+00,0.00e+00,
800,0.00e+00,4.00e-02,
801,0.00e+00,4.00e-02,
802,0.00e+00,4.00e-02,
803,0.00e+00,4.00e-02,
804,0.00e+00,4.00e-02,
805,0.00e+00,4.00e-02,
806,0.00e+00,4.00e-02,
807,0.00e+00,4.00e-02,
808,0.00e+00,4.00e-02,
809,0.00e+00,4.00e-02,
810,0.00e+00,4.00e-02,
811,0.00e+00,4.00e-02,
812,0.00e+00,4.00e-02,
813,0.00e+00,4.00e-02,
814,0.00e+00,4.00e-02,
815,0.00e+00,4.00e-02,
816,0.00e+00,4.00e-02,
817,0.00e+00,4.00e-02,
818,0.00e+00,4.00e-02,
819,0.00e+00,4.00e-02,
820,0.00e+00,4.00e-02,
821,0.00e+00,4.00e-02,
822,0.00e+00,4.00e-02,
823,0.00e+00,4.00e-02,
824,0.00e+00,4.00e-02,
825,0.00e+00,4.00e-02,
826,0.00e+00,4.00e-02,
827,0.00e+00,4.00e-02,
828,0.00e+00,4.00e-02,
829,0.00e+00,4.00e-02,
830,0.00e+00,4.00e-02,
