RawData/timecalib/NewFile5.csv

X,CH1,Start,Increment,
Sequence,Volt,-7.399997e-07,2.000000e-09
0,-1.00e-02,
1,1.00e-02,
2,1.00e-02,
3,-1.00e-02,
4,-1.00e-02,
5,1.00e-02,
6,1.00e-02,
7,-3.00e-02,
8,-1.00e-02,
9,3.00e-02,
10,1.00e-02,
11,-1.00e-02,
12,1.00e-02,
13,3.00e-02,
14,-1.00e-02,
15,-1.00e-02,
16,3.00e-02,
17,1.00e-02,
18,-1.00e-02,
19,1.00e-02,
20,3.00e-02,
21,-1.00e-02,
22,-1.00e-02,
23,1.00e-02,
24,1.00e-02,
25,-1.00e-02,
26,-1.00e-02,
27,3.00e-02,
28,1.00e-02,
29,-3.00e-02,
30,1.00e-02,
31,1.00e-02,
32,-1.00e-02,
33,-1.00e-02,
34,1.00e-02,
35,3.00e-02,
36,-1.00e-02,
37,-1.00e-02,
38,3.00e-02,
39,1.00e-02,
40,-3.00e-02,
41,-1.00e-02,
42,3.00e-02,
43,-1.00e-02,
44,-1.00e-02,
45,1.00e-02,
46,1.00e-02,
47,-1.00e-02,
48,-1.00e-02,
49,1.00e-02,
50,1.00e-02,
51,-1.00e-02,
52,-1.00e-02,
53,1.00e-02,
54,1.00e-02,
55,-3.00e-02,
56,1.00e-02,
57,3.00e-02,
58,-1.00e-02,
59,-1.00e-02,
60,1.00e-02,
61,1.00e-02,
62,-1.00e-02,
63,-1.00e-02,
64,1.00e-02,
65,-1.00e-02,
66,-1.00e-02,
67,1.00e-02,
68,1.00e-02,
69,-1.00e-02,
70,-1.00e-02,
71,1.00e-02,
72,1.00e-02,
73,-1.00e-02,
74,-1.00e-02,
75,3.00e-02,
76,1.00e-02,
77,-3.00e-02,
78,-1.00e-02,
79,1.00e-02,
80,-1.00e-02,
81,-1.00e-02,
82,1.00e-02,
83,1.00e-02,
84,-1.00e-02,
85,-1.00e-02,
86,1.00e-02,
87,1.00e-02,
88,-1.00e-02,
89,-1.00e-02,
90,1.00e-02,
91,-1.00e-02,
92,-1.00e-02,
93,1.00e-02,
94,1.00e-02,
95,-3.00e-02,
96,-1.00e-02,
97,3.00e-02,
98,1.00e-02,
99,-1.00e-02,
100,-1.00e-02,
101,3.00e-02,
102,-1.00e-02,
103,-1.00e-02,
104,1.00e-02,
105,1.00e-02,
106,-1.00e-02,
107,-1.00e-02,
108,1.00e-02,
109,1.00e-02,
110,-3.00e-02,
111,-1.00e-02,
112,1.00e-02,
113,1.00e-02,
114,-1.00e-02,
115,1.00e-02,
116,1.00e-02,
117,-1.00e-02,
118,-1.00e-02,
119,1.00e-02,
120,1.00e-02,
121,-1.00e-02,
122,1.00e-02,
123,3.00e-02,
124,1.00e-02,
125,-1.00e-02,
126,1.00e-02,
127,1.00e-02,
128,-1.00e-02,
129,-3.00e-02,
130,1.00e-02,
131,3.00e-02,
132,-3.00e-02,
133,1.00e-02,
134,1.00e-02,
135,1.00e-02,
136,-1.00e-02,
137,1.00e-02,
138,3.00e-02,
139,-1.00e-02,
140,-1.00e-02,
141,1.00e-02,
142,1.00e-02,
143,-1.00e-02,
144,-1.00e-02,
145,3.00e-02,
146,1.00e-02,
147,-1.00e-02,
148,1.00e-02,
149,1.00e-02,
150,-1.00e-02,
151,-3.00e-02,
152,1.00e-02,
153,1.00e-02,
154,-1.00e-02,
155,-1.00e-02,
156,3.00e-02,
157,1.00e-02,
158,-1.00e-02,
159,-1.00e-02,
160,1.00e-02,
161,-1.00e-02,
162,-1.00e-02,
163,1.00e-02,
164,1.00e-02,
165,-1.00e-02,
166,-1.00e-02,
167,1.00e-02,
168,1.00e-02,
169,-1.00e-02,
170,-1.00e-02,
171,1.00e-02,
172,-1.00e-02,
173,-3.00e-02,
174,1.00e-02,
175,1.00e-02,
176,-1.00e-02,
177,-1.00e-02,
178,1.00e-02,
179,1.00e-02,
180,-1.00e-02,
181,-1.00e-02,
182,1.00e-02,
183,-1.00e-02,
184,-1.00e-02,
185,1.00e-02,
186,1.00e-02,
187,-1.00e-02,
188,-3.00e-02,
189,1.00e-02,
190,1.00e-02,
191,-3.00e-02,
192,-1.00e-02,
193,3.00e-02,
194,1.00e-02,
195,-1.00e-02,
196,1.00e-02,
197,3.00e-02,
198,-1.00e-02,
199,-3.00e-02,
200,1.00e-02,
201,1.00e-02,
202,-1.00e-02,
203,-1.00e-02,
204,3.00e-02,
205,1.00e-02,
206,-1.00e-02,
207,1.00e-02,
208,1.00e-02,
209,-1.00e-02,
210,-1.00e-02,
211,1.00e-02,
212,1.00e-02,
213,-1.00e-02,
214,1.00e-02,
215,1.00e-02,
216,1.00e-02,
217,-1.00e-02,
218,1.00e-02,
219,3.00e-02,
220,-1.00e-02,
221,-1.00e-02,
222,1.00e-02,
223,1.00e-02,
224,-1.00e-02,
225,-1.00e-02,
226,1.00e-02,
227,1.00e-02,
228,-3.00e-02,
229,1.00e-02,
230,3.00e-02,
231,-1.00e-02,
232,-1.00e-02,
233,1.00e-02,
234,1.00e-02,
235,-1.00e-02,
236,-1.00e-02,
237,1.00e-02,
238,1.00e-02,
239,-1.00e-02,
240,1.00e-02,
241,3.00e-02,
242,1.00e-02,
243,-1.00e-02,
244,1.00e-02,
245,1.00e-02,
246,-1.00e-02,
247,-1.00e-02,
248,3.00e-02,
249,1.00e-02,
250,-1.00e-02,
251,-1.00e-02,
252,1.00e-02,
253,-1.00e-02,
254,-1.00e-02,
255,1.00e-02,
256,1.00e-02,
257,-1.00e-02,
258,-1.00e-02,
259,3.00e-02,
260,1.00e-02,
261,-1.00e-02,
262,-1.00e-02,
263,1.00e-02,
264,1.00e-02,
265,-1.00e-02,
266,1.00e-02,
267,1.00e-02,
268,-1.00e-02,
269,-1.00e-02,
270,1.00e-02,
271,1.00e-02,
272,-1.00e-02,
273,-1.00e-02,
274,1.00e-02,
275,1.00e-02,
276,-3.00e-02,
277,1.00e-02,
278,3.00e-02,
279,-1.00e-02,
280,-1.00e-02,
281,1.00e-02,
282,3.00e-02,
283,-1.00e-02,
284,-1.00e-02,
285,3.00e-02,
286,1.00e-02,
287,-3.00e-02,
288,1.00e-02,
289,1.00e-02,
290,-1.00e-02,
291,-1.00e-02,
292,1.00e-02,
293,3.00e-02,
294,-1.00e-02,
295,-1.00e-02,
296,1.00e-02,
297,1.00e-02,
298,-1.00e-02,
299,1.00e-02,
300,1.00e-02,
301,-1.00e-02,
302,-3.00e-02,
303,1.00e-02,
304,3.00e-02,
305,-1.00e-02,
306,-1.00e-02,
307,3.00e-02,
308,1.00e-02,
309,-1.00e-02,
310,-1.00e-02,
311,1.00e-02,
312,1.00e-02,
313,-1.00e-02,
314,1.00e-02,
315,1.00e-02,
316,-1.00e-02,
317,-3.00e-02,
318,1.00e-02,
319,1.00e-02,
320,-1.00e-02,
321,1.00e-02,
322,3.00e-02,
323,1.00e-02,
324,-1.00e-02,
325,1.00e-02,
326,3.00e-02,
327,-1.00e-02,
328,-1.00e-02,
329,1.00e-02,
330,1.00e-02,
331,-1.00e-02,
332,-1.00e-02,
333,3.00e-02,
334,1.00e-02,
335,-3.00e-02,
336,1.00e-02,
337,3.00e-02,
338,1.00e-02,
339,-1.00e-02,
340,1.00e-02,
341,1.00e-02,
342,-1.00e-02,
343,-1.00e-02,
344,3.00e-02,
345,1.00e-02,
346,-1.00e-02,
347,1.00e-02,
348,3.00e-02,
349,-1.00e-02,
350,-3.00e-02,
351,1.00e-02,
352,3.00e-02,
353,-1.00e-02,
354,1.00e-02,
355,1.00e-02,
356,1.00e-02,
357,-3.00e-02,
358,1.00e-02,
359,1.00e-02,
360,-1.00e-02,
361,-1.00e-02,
362,1.00e-02,
363,3.00e-02,
364,-1.00e-02,
365,1.00e-02,
366,3.00e-02,
367,1.00e-02,
368,-3.00e-02,
369,-9.00e-02,
370,-2.90e-01,
371,-5.30e-01,
372,-7.50e-01,
373,-9.50e-01,
374,-1.13e+00,
375,-1.29e+00,
376,-1.37e+00,
377,-1.47e+00,
378,-1.41e+00,
379,-1.45e+00,
380,-1.47e+00,
381,-1.51e+00,
382,-1.49e+00,
383,-1.51e+00,
384,-1.49e+00,
385,-1.51e+00,
386,-1.51e+00,
387,-1.51e+00,
388,-1.51e+00,
389,-1.53e+00,
390,-1.49e+00,
391,-1.53e+00,
392,-1.51e+00,
393,-1.51e+00,
394,-1.49e+00,
395,-1.51e+00,
396,-1.49e+00,
397,-1.51e+00,
398,-1.47e+00,
399,-1.49e+00,
400,-1.47e+00,
401,-1.47e+00,
402,-1.41e+00,
403,-1.41e+00,
404,-1.41e+00,
405,-1.41e+00,
406,-1.37e+00,
407,-1.39e+00,
408,-1.37e+00,
409,-1.39e+00,
410,-1.35e+00,
411,-1.35e+00,
412,-1.35e+00,
413,-1.37e+00,
414,-1.35e+00,
415,-1.35e+00,
416,-1.33e+00,
417,-1.35e+00,
418,-1.33e+00,
419,-1.35e+00,
420,-1.33e+00,
421,-1.33e+00,
422,-1.33e+00,
423,-1.35e+00,
424,-1.33e+00,
425,-1.33e+00,
426,-1.33e+00,
427,-1.33e+00,
428,-1.33e+00,
429,-1.35e+00,
430,-1.33e+00,
431,-1.33e+00,
432,-1.33e+00,
433,-1.35e+00,
434,-1.33e+00,
435,-1.33e+00,
436,-1.33e+00,
437,-1.35e+00,
438,-1.33e+00,
439,-1.35e+00,
440,-1.33e+00,
441,-1.35e+00,
442,-1.31e+00,
443,-1.33e+00,
444,-1.33e+00,
445,-1.35e+00,
446,-1.33e+00,
447,-1.35e+00,
448,-1.31e+00,
449,-1.33e+00,
450,-1.33e+00,
451,-1.33e+00,
452,-1.33e+00,
453,-1.33e+00,
454,-1.33e+00,
455,-1.35e+00,
456,-1.31e+00,
457,-1.35e+00,
458,-1.31e+00,
459,-1.33e+00,
460,-1.33e+00,
461,-1.33e+00,
462,-1.31e+00,
463,-1.35e+00,
464,-1.33e+00,
465,-1.33e+00,
466,-1.31e+00,
467,-1.33e+00,
468,-1.33e+00,
469,-1.35e+00,
470,-1.31e+00,
471,-1.35e+00,
472,-1.33e+00,
473,-1.33e+00,
474,-1.31e+00,
475,-1.33e+00,
476,-1.31e+00,
477,-1.35e+00,
478,-1.31e+00,
479,-1.33e+00,
480,-1.33e+00,
481,-1.33e+00,
482,-1.31e+00,
483,-1.33e+00,
484,-1.33e+00,
485,-1.33e+00,
486,-1.31e+00,
487,-1.33e+00,
488,-1.33e+00,
489,-1.33e+00,
490,-1.31e+00,
491,-1.33e+00,
492,-1.33e+00,
493,-1.35e+00,
494,-1.33e+00,
495,-1.33e+00,
496,-1.33e+00,
497,-1.35e+00,
498,-1.33e+00,
499,-1.33e+00,
500,-1.33e+00,
501,-1.33e+00,
502,-1.33e+00,
503,-1.35e+00,
504,-1.31e+00,
505,-1.33e+00,
506,-1.33e+00,
507,-1.33e+00,
508,-1.33e+00,
509,-1.33e+00,
510,-1.31e+00,
511,-1.35e+00,
512,-1.33e+00,
513,-1.35e+00,
514,-1.31e+00,
515,-1.33e+00,
516,-1.33e+00,
517,-1.35e+00,
518,-1.33e+00,
519,-1.35e+00,
520,-1.33e+00,
521,-1.33e+00,
522,-1.31e+00,
523,-1.33e+00,
524,-1.33e+00,
525,-1.33e+00,
526,-1.31e+00,
527,-1.35e+00,
528,-1.33e+00,
529,-1.33e+00,
530,-1.33e+00,
531,-1.33e+00,
532,-1.31e+00,
533,-1.35e+00,
534,-1.33e+00,
535,-1.33e+00,
536,-1.33e+00,
537,-1.35e+00,
538,-1.31e+00,
539,-1.33e+00,
540,-1.31e+00,
541,-1.33e+00,
542,-1.29e+00,
543,-1.05e+00,
544,-3.10e-01,
545,9.00e-02,
546,-7.00e-02,
547,-1.70e-01,
548,-1.00e-02,
549,3.00e-02,
550,-3.00e-02,
551,-3.00e-02,
552,1.00e-02,
553,3.00e-02,
554,-3.00e-02,
555,-1.00e-02,
556,3.00e-02,
557,1.00e-02,
558,-5.00e-02,
559,1.00e-02,
560,5.00e-02,
561,-3.00e-02,
562,-3.00e-02,
563,5.00e-02,
564,1.00e-02,
565,-7.00e-02,
566,3.00e-02,
567,3.00e-02,
568,-3.00e-02,
569,-1.00e-02,
570,5.00e-02,
571,1.00e-02,
572,-5.00e-02,
573,3.00e-02,
574,3.00e-02,
575,-5.00e-02,
576,-1.00e-02,
577,5.00e-02,
578,-1.00e-02,
579,-3.00e-02,
580,3.00e-02,
581,3.00e-02,
582,-5.00e-02,
583,1.00e-02,
584,5.00e-02,
585,-1.00e-02,
586,-3.00e-02,
587,5.00e-02,
588,3.00e-02,
589,-5.00e-02,
590,1.00e-02,
591,5.00e-02,
592,-3.00e-02,
593,-3.00e-02,
594,5.00e-02,
595,1.00e-02,
596,-5.00e-02,
597,1.00e-02,
598,5.00e-02,
599,-3.00e-02,
600,-3.00e-02,
601,5.00e-02,
602,1.00e-02,
603,-5.00e-02,
604,1.00e-02,
605,5.00e-02,
606,-3.00e-02,
607,-1.00e-02,
608,5.00e-02,
609,1.00e-02,
610,-3.00e-02,
611,3.00e-02,
612,3.00e-02,
613,-5.00e-02,
614,-1.00e-02,
615,5.00e-02,
616,1.00e-02,
617,-5.00e-02,
618,3.00e-02,
619,5.00e-02,
620,-3.00e-02,
621,-1.00e-02,
622,5.00e-02,
623,-1.00e-02,
624,-3.00e-02,
625,3.00e-02,
626,5.00e-02,
627,-3.00e-02,
628,-1.00e-02,
629,5.00e-02,
630,1.00e-02,
631,-3.00e-02,
632,3.00e-02,
633,3.00e-02,
634,-3.00e-02,
635,1.00e-02,
636,5.00e-02,
637,-1.00e-02,
638,-3.00e-02,
639,3.00e-02,
640,3.00e-02,
641,-5.00e-02,
642,1.00e-02,
643,9.00e-02,
644,-1.00e-02,
645,-3.00e-02,
646,3.00e-02,
647,3.00e-02,
648,-5.00e-02,
649,-1.00e-02,
650,3.00e-02,
651,1.00e-02,
652,-3.00e-02,
653,3.00e-02,
654,3.00e-02,
655,-3.00e-02,
656,-1.00e-02,
657,5.00e-02,
658,1.00e-02,
659,-3.00e-02,
660,3.00e-02,
661,3.00e-02,
662,-3.00e-02,
663,-1.00e-02,
664,3.00e-02,
665,1.00e-02,
666,-3.00e-02,
667,3.00e-02,
668,3.00e-02,
669,-3.00e-02,
670,1.00e-02,
671,3.00e-02,
672,1.00e-02,
673,-3.00e-02,
674,3.00e-02,
675,3.00e-02,
676,-3.00e-02,
677,-1.00e-02,
678,5.00e-02,
679,1.00e-02,
680,-3.00e-02,
681,3.00e-02,
682,3.00e-02,
683,-3.00e-02,
684,-1.00e-02,
685,3.00e-02,
686,1.00e-02,
687,-3.00e-02,
688,1.00e-02,
689,3.00e-02,
690,-1.00e-02,
691,-1.00e-02,
692,3.00e-02,
693,3.00e-02,
694,-3.00e-02,
695,1.00e-02,
696,3.00e-02,
697,-1.00e-02,
698,-1.00e-02,
699,3.00e-02,
700,3.00e-02,
701,-3.00e-02,
702,1.00e-02,
703,3.00e-02,
704,1.00e-02,
705,-3.00e-02,
706,3.00e-02,
707,3.00e-02,
708,-3.00e-02,
709,-1.00e-02,
710,3.00e-02,
711,1.00e-02,
712,-3.00e-02,
713,3.00e-02,
714,3.00e-02,
715,-3.00e-02,
716,-1.00e-02,
717,3.00e-02,
718,3.00e-02,
719,-3.00e-02,
720,1.00e-02,
721,5.00e-02,
722,-1.00e-02,
723,-1.00e-02,
724,3.00e-02,
725,3.00e-02,
726,-3.00e-02,
727,1.00e-02,
728,5.00e-02,
729,-1.00e-02,
730,-3.00e-02,
731,3.00e-02,
732,3.00e-02,
733,-3.00e-02,
734,-1.00e-02,
735,3.00e-02,
736,1.00e-02,
737,-3.00e-02,
738,3.00e-02,
739,3.00e-02,
740,-3.00e-02,
741,-1.00e-02,
742,3.00e-02,
743,1.00e-02,
744,-3.00e-02,
745,3.00e-02,
746,3.00e-02,
747,-1.00e-02,
748,-1.00e-02,
749,3.00e-02,
750,3.00e-02,
751,-1.00e-02,
752,1.00e-02,
753,3.00e-02,
754,1.00e-02,
755,-1.00e-02,
756,3.00e-02,
757,3.00e-02,
758,-3.00e-02,
759,-1.00e-02,
760,3.00e-02,
761,1.00e-02,
762,-3.00e-02,
763,1.00e-02,
764,3.00e-02,
765,-1.00e-02,
766,-1.00e-02,
767,3.00e-02,
768,1.00e-02,
769,-3.00e-02,
770,1.00e-02,
771,3.00e-02,
772,-1.00e-02,
773,-3.00e-02,
774,3.00e-02,
775,1.00e-02,
776,-3.00e-02,
777,-1.00e-02,
778,3.00e-02,
779,1.00e-02,
780,-3.00e-02,
781,1.00e-02,
782,3.00e-02,
783,-1.00e-02,
784,-1.00e-02,
785,3.00e-02,
786,1.00e-02,
787,-1.00e-02,
788,1.00e-02,
789,3.00e-02,
790,-1.00e-02,
791,-3.00e-02,
792,3.00e-02,
793,3.00e-02,
794,-1.00e-02,
795,1.00e-02,
796,3.00e-02,
797,1.00e-02,
798,-1.00e-02,
799,1.00e-02,
800,3.00e-02,
801,-3.00e-02,
802,-1.00e-02,
803,3.00e-02,
804,1.00e-02,
805,-3.00e-02,
806,1.00e-02,
807,3.00e-02,
808,-1.00e-02,
809,-1.00e-02,
810,1.00e-02,
811,3.00e-02,
812,-3.00e-02,
813,-1.00e-02,
814,3.00e-02,
815,1.00e-02,
816,-3.00e-02,
817,1.00e-02,
818,3.00e-02,
819,-1.00e-02,
820,-1.00e-02,
821,3.00e-02,
822,1.00e-02,
823,-3.00e-02,
824,1.00e-02,
825,3.00e-02,
826,-1.00e-02,
827,-1.00e-02,
828,1.00e-02,
829,3.00e-02,
830,-3.00e-02,
831,-1.00e-02,
832,3.00e-02,
833,1.00e-02,
834,-3.00e-02,
835,1.00e-02,
836,3.00e-02,
837,-1.00e-02,
838,-1.00e-02,
839,1.00e-02,
840,3.00e-02,
841,-3.00e-02,
842,-1.00e-02,
843,3.00e-02,
844,1.00e-02,
845,-3.00e-02,
846,1.00e-02,
847,3.00e-02,
848,-1.00e-02,
849,-1.00e-02,
850,3.00e-02,
851,1.00e-02,
852,-3.00e-02,
853,1.00e-02,
854,3.00e-02,
855,1.00e-02,
856,-3.00e-02,
857,3.00e-02,
858,3.00e-02,
859,-1.00e-02,
860,-1.00e-02,
861,3.00e-02,
862,1.00e-02,
863,-3.00e-02,
864,1.00e-02,
865,3.00e-02,
866,-1.00e-02,
867,-1.00e-02,
868,3.00e-02,
869,1.00e-02,
870,-1.00e-02,
871,-1.00e-02,
872,3.00e-02,
873,-1.00e-02,
874,-1.00e-02,
875,1.00e-02,
876,3.00e-02,
877,-1.00e-02,
878,-1.00e-02,
879,3.00e-02,
880,1.00e-02,
881,-3.00e-02,
882,1.00e-02,
883,3.00e-02,
884,-1.00e-02,
885,-1.00e-02,
886,1.00e-02,
887,1.00e-02,
888,-3.00e-02,
889,-1.00e-02,
890,3.00e-02,
891,1.00e-02,
892,-3.00e-02,
893,1.00e-02,
894,3.00e-02,
895,-1.00e-02,
896,-1.00e-02,
897,3.00e-02,
898,3.00e-02,
899,-3.00e-02,
900,-1.00e-02,
901,3.00e-02,
902,1.00e-02,
903,-3.00e-02,
904,1.00e-02,
905,3.00e-02,
906,-1.00e-02,
907,-1.00e-02,
908,3.00e-02,
909,1.00e-02,
910,-3.00e-02,
911,-1.00e-02,
912,3.00e-02,
913,1.00e-02,
914,-1.00e-02,
915,1.00e-02,
916,1.00e-02,
917,-1.00e-02,
918,-1.00e-02,
919,3.00e-02,
920,1.00e-02,
921,-3.00e-02,
922,1.00e-02,
923,3.00e-02,
924,-1.00e-02,
925,-3.00e-02,
926,3.00e-02,
927,3.00e-02,
928,-3.00e-02,
929,-1.00e-02,
930,3.00e-02,
931,1.00e-02,
932,-3.00e-02,
933,1.00e-02,
934,3.00e-02,
935,-1.00e-02,
936,-1.00e-02,
937,1.00e-02,
938,3.00e-02,
939,-3.00e-02,
940,-1.00e-02,
941,3.00e-02,
942,1.00e-02,
943,-3.00e-02,
944,1.00e-02,
945,3.00e-02,
946,-1.00e-02,
947,-1.00e-02,
948,3.00e-02,
949,1.00e-02,
950,-3.00e-02,
951,-1.00e-02,
952,3.00e-02,
953,1.00e-02,
954,-3.00e-02,
955,1.00e-02,
956,3.00e-02,
957,-1.00e-02,
958,-1.00e-02,
959,1.00e-02,
960,1.00e-02,
961,-3.00e-02,
962,-1.00e-02,
963,3.00e-02,
964,-1.00e-02,
965,-1.00e-02,
966,1.00e-02,
967,1.00e-02,
968,-1.00e-02,
969,-1.00e-02,
970,3.00e-02,
971,1.00e-02,
972,-1.00e-02,
973,1.00e-02,
974,3.00e-02,
975,-1.00e-02,
976,-3.00e-02,
977,1.00e-02,
978,3.00e-02,
979,-1.00e-02,
980,-1.00e-02,
981,1.00e-02,
982,1.00e-02,
983,-3.00e-02,
984,1.00e-02,
985,3.00e-02,
986,-1.00e-02,
987,-1.00e-02,
988,3.00e-02,
989,1.00e-02,
990,-1.00e-02,
991,-1.00e-02,
992,3.00e-02,
993,1.00e-02,
994,-3.00e-02,
995,1.00e-02,
996,3.00e-02,
997,-1.00e-02,
998,-1.00e-02,
999,1.00e-02,
1000,1.00e-02,
1001,-1.00e-02,
1002,-1.00e-02,
1003,3.00e-02,
1004,1.00e-02,
1005,-3.00e-02,
1006,1.00e-02,
1007,1.00e-02,
1008,-1.00e-02,
1009,-1.00e-02,
1010,3.00e-02,
1011,3.00e-02,
1012,-1.00e-02,
1013,-1.00e-02,
1014,1.00e-02,
1015,-1.00e-02,
1016,-3.00e-02,
1017,1.00e-02,
1018,1.00e-02,
1019,-1.00e-02,
1020,-1.00e-02,
1021,1.00e-02,
1022,1.00e-02,
1023,-3.00e-02,
1024,1.00e-02,
1025,3.00e-02,
1026,1.00e-02,
1027,-1.00e-02,
1028,1.00e-02,
1029,1.00e-02,
1030,-1.00e-02,
1031,-1.00e-02,
1032,3.00e-02,
1033,1.00e-02,
1034,-3.00e-02,
1035,-1.00e-02,
1036,3.00e-02,
1037,-1.00e-02,
1038,-3.00e-02,
1039,1.00e-02,
1040,1.00e-02,
1041,-3.00e-02,
1042,-1.00e-02,
1043,3.00e-02,
1044,1.00e-02,
1045,-3.00e-02,
1046,1.00e-02,
1047,3.00e-02,
1048,-1.00e-02,
1049,-1.00e-02,
1050,1.00e-02,
1051,1.00e-02,
1052,-1.00e-02,
1053,-1.00e-02,
1054,3.00e-02,
1055,1.00e-02,
1056,-3.00e-02,
1057,1.00e-02,
1058,3.00e-02,
1059,1.00e-02,
1060,-3.00e-02,
1061,1.00e-02,
1062,1.00e-02,
1063,-3.00e-02,
1064,-1.00e-02,
1065,3.00e-02,
1066,1.00e-02,
1067,-3.00e-02,
1068,-1.00e-02,
1069,3.00e-02,
1070,-1.00e-02,
1071,-1.00e-02,
1072,3.00e-02,
1073,1.00e-02,
1074,-1.00e-02,
1075,-1.00e-02,
1076,3.00e-02,
1077,1.00e-02,
1078,-1.00e-02,
1079,-1.00e-02,
1080,1.00e-02,
1081,-1.00e-02,
1082,-3.00e-02,
1083,3.00e-02,
1084,1.00e-02,
1085,-3.00e-02,
1086,-1.00e-02,
1087,3.00e-02,
1088,1.00e-02,
1089,-3.00e-02,
1090,1.00e-02,
1091,3.00e-02,
1092,-1.00e-02,
1093,-1.00e-02,
1094,1.00e-02,
1095,1.00e-02,
1096,-1.00e-02,
1097,-1.00e-02,
1098,1.00e-02,
1099,1.00e-02,
1100,-3.00e-02,
1101,1.00e-02,
1102,1.00e-02,
1103,-1.00e-02,
1104,-1.00e-02,
1105,3.00e-02,
1106,1.00e-02,
1107,-1.00e-02,
1108,-1.00e-02,
1109,3.00e-02,
1110,-1.00e-02,
1111,-3.00e-02,
1112,1.00e-02,
1113,3.00e-02,
1114,-1.00e-02,
1115,-1.00e-02,
1116,1.00e-02,
1117,1.00e-02,
1118,-3.00e-02,
1119,-1.00e-02,
1120,3.00e-02,
1121,1.00e-02,
1122,-3.00e-02,
1123,1.00e-02,
1124,3.00e-02,
1125,-1.00e-02,
1126,-1.00e-02,
1127,1.00e-02,
1128,1.00e-02,
1129,-1.00e-02,
1130,-1.00e-02,
1131,3.00e-02,
1132,-1.00e-02,
1133,-3.00e-02,
1134,1.00e-02,
1135,1.00e-02,
1136,-1.00e-02,
1137,-1.00e-02,
1138,3.00e-02,
1139,1.00e-02,
1140,-3.00e-02,
1141,-1.00e-02,
1142,1.00e-02,
1143,-1.00e-02,
1144,-1.00e-02,
1145,1.00e-02,
1146,3.00e-02,
1147,-1.00e-02,
1148,-1.00e-02,
1149,1.00e-02,
1150,1.00e-02,
1151,-1.00e-02,
1152,-1.00e-02,
1153,3.00e-02,
1154,1.00e-02,
1155,-3.00e-02,
1156,1.00e-02,
1157,1.00e-02,
1158,-1.00e-02,
1159,-1.00e-02,
1160,1.00e-02,
1161,1.00e-02,
1162,-3.00e-02,
1163,1.00e-02,
1164,3.00e-02,
1165,-1.00e-02,
1166,-3.00e-02,
1167,1.00e-02,
1168,3.00e-02,
1169,-1.00e-02,
1170,-1.00e-02,
1171,3.00e-02,
1172,1.00e-02,
1173,-3.00e-02,
1174,1.00e-02,
1175,1.00e-02,
1176,1.00e-02,
1177,-3.00e-02,
1178,1.00e-02,
1179,3.00e-02,
1180,-1.00e-02,
1181,-1.00e-02,
1182,1.00e-02,
1183,1.00e-02,
1184,-3.00e-02,
1185,1.00e-02,
1186,3.00e-02,
1187,1.00e-02,
1188,-3.00e-02,
1189,1.00e-02,
1190,1.00e-02,
1191,-1.00e-02,
1192,-1.00e-02,
1193,1.00e-02,
1194,1.00e-02,
1195,-1.00e-02,
1196,-1.00e-02,
1197,1.00e-02,
1198,1.00e-02,
1199,-3.00e-02,
1200,1.00e-02,
1201,1.00e-02,
1202,-3.00e-02,
1203,-1.00e-02,
1204,1.00e-02,
1205,1.00e-02,
1206,-1.00e-02,
1207,-1.00e-02,
1208,1.00e-02,
1209,-1.00e-02,
1210,-3.00e-02,
1211,1.00e-02,
1212,1.00e-02,
1213,-1.00e-02,
1214,-1.00e-02,
1215,1.00e-02,
1216,1.00e-02,
1217,-3.00e-02,
1218,-1.00e-02,
1219,1.00e-02,
1220,1.00e-02,
1221,-1.00e-02,
1222,1.00e-02,
1223,3.00e-02,
1224,-1.00e-02,
1225,-1.00e-02,
1226,1.00e-02,
1227,3.00e-02,
1228,-3.00e-02,
1229,1.00e-02,
1230,3.00e-02,
1231,-1.00e-02,
1232,-1.00e-02,
1233,1.00e-02,
1234,3.00e-02,
1235,-1.00e-02,
1236,-1.00e-02,
1237,1.00e-02,
1238,1.00e-02,
1239,-3.00e-02,
1240,-1.00e-02,
1241,1.00e-02,
1242,-1.00e-02,
1243,-1.00e-02,
1244,1.00e-02,
1245,3.00e-02,
1246,-1.00e-02,
1247,-1.00e-02,
1248,1.00e-02,
1249,1.00e-02,
1250,-1.00e-02,
1251,1.00e-02,
1252,1.00e-02,
1253,1.00e-02,
1254,-1.00e-02,
1255,1.00e-02,
1256,1.00e-02,
1257,-1.00e-02,
1258,-1.00e-02,
1259,3.00e-02,
1260,1.00e-02,
1261,-3.00e-02,
1262,-1.00e-02,
1263,3.00e-02,
1264,-1.00e-02,
1265,-3.00e-02,
1266,1.00e-02,
1267,3.00e-02,
1268,-1.00e-02,
1269,-1.00e-02,
1270,1.00e-02,
1271,1.00e-02,
1272,-1.00e-02,
1273,1.00e-02,
1274,1.00e-02,
1275,1.00e-02,
1276,-1.00e-02,
1277,1.00e-02,
1278,3.00e-02,
1279,-1.00e-02,
1280,-1.00e-02,
1281,1.00e-02,
1282,1.00e-02,
1283,-1.00e-02,
1284,1.00e-02,
1285,3.00e-02,
1286,1.00e-02,
1287,-3.00e-02,
1288,1.00e-02,
1289,1.00e-02,
1290,-1.00e-02,
1291,-1.00e-02,
1292,1.00e-02,
1293,1.00e-02,
1294,-1.00e-02,
1295,-1.00e-02,
1296,3.00e-02,
1297,1.00e-02,
1298,-1.00e-02,
1299,1.00e-02,
1300,1.00e-02,
1301,-1.00e-02,
1302,-1.00e-02,
1303,1.00e-02,
1304,1.00e-02,
1305,-3.00e-02,
1306,-1.00e-02,
1307,1.00e-02,
1308,1.00e-02,
1309,-3.00e-02,
1310,1.00e-02,
1311,1.00e-02,
1312,-1.00e-02,
1313,-1.00e-02,
1314,1.00e-02,
1315,1.00e-02,
1316,-1.00e-02,
1317,-1.00e-02,
1318,1.00e-02,
1319,-1.00e-02,
1320,-3.00e-02,
1321,1.00e-02,
1322,3.00e-02,
1323,-1.00e-02,
1324,-1.00e-02,
1325,1.00e-02,
1326,1.00e-02,
1327,-3.00e-02,
1328,-1.00e-02,
1329,3.00e-02,
1330,1.00e-02,
1331,-1.00e-02,
1332,1.00e-02,
1333,1.00e-02,
1334,-1.00e-02,
1335,-1.00e-02,
1336,1.00e-02,
1337,1.00e-02,
1338,-1.00e-02,
1339,-1.00e-02,
1340,1.00e-02,
1341,1.00e-02,
1342,-1.00e-02,
1343,-1.00e-02,
1344,3.00e-02,
1345,-1.00e-02,
1346,-1.00e-02,
1347,3.00e-02,
1348,1.00e-02,
1349,-1.00e-02,
1350,-1.00e-02,
1351,3.00e-02,
1352,-1.00e-02,
1353,-1.00e-02,
1354,-1.00e-02,
