RawData/timecalib1/NewFile1.csv

X,CH1,CH2,Start,Increment,
Sequence,Volt,Volt,-6.999998e-07,2.000000e-09
0,1.00e-02,-2.00e-02,
1,-3.00e-02,6.00e-02,
2,3.00e-02,2.00e-02,
3,3.00e-02,-2.00e-02,
4,-3.00e-02,-2.00e-02,
5,1.00e-02,6.00e-02,
6,3.00e-02,2.00e-02,
7,3.00e-02,-2.00e-02,
8,-3.00e-02,2.00e-02,
9,1.00e-02,6.00e-02,
10,3.00e-02,-2.00e-02,
11,3.00e-02,-2.00e-02,
12,-3.00e-02,6.00e-02,
13,3.00e-02,2.00e-02,
14,3.00e-02,-2.00e-02,
15,1.00e-02,-2.00e-02,
16,-3.00e-02,2.00e-02,
17,3.00e-02,2.00e-02,
18,3.00e-02,-2.00e-02,
19,-3.00e-02,2.00e-02,
20,-3.00e-02,2.00e-02,
21,5.00e-02,-2.00e-02,
22,1.00e-02,-2.00e-02,
23,-3.00e-02,2.00e-02,
24,1.00e-02,2.00e-02,
25,5.00e-02,-2.00e-02,
26,-3.00e-02,-2.00e-02,
27,-3.00e-02,6.00e-02,
28,1.00e-02,2.00e-02,
29,3.00e-02,-2.00e-02,
30,-3.00e-02,2.00e-02,
31,1.00e-02,2.00e-02,
32,3.00e-02,-2.00e-02,
33,3.00e-02,-2.00e-02,
34,-3.00e-02,2.00e-02,
35,1.00e-02,2.00e-02,
36,3.00e-02,-2.00e-02,
37,1.00e-02,-2.00e-02,
38,-3.00e-02,6.00e-02,
39,3.00e-02,2.00e-02,
40,1.00e-02,-2.00e-02,
41,1.00e-02,2.00e-02,
42,1.00e-02,2.00e-02,
43,3.00e-02,-2.00e-02,
44,1.00e-02,-2.00e-02,
45,1.00e-02,2.00e-02,
46,1.00e-02,2.00e-02,
47,3.00e-02,-2.00e-02,
48,-3.00e-02,2.00e-02,
49,1.00e-02,6.00e-02,
50,3.00e-02,2.00e-02,
51,3.00e-02,-2.00e-02,
52,-3.00e-02,2.00e-02,
53,1.00e-02,6.00e-02,
54,3.00e-02,-2.00e-02,
55,3.00e-02,2.00e-02,
56,-3.00e-02,2.00e-02,
57,3.00e-02,2.00e-02,
58,3.00e-02,-2.00e-02,
59,1.00e-02,-2.00e-02,
60,-3.00e-02,6.00e-02,
61,3.00e-02,2.00e-02,
62,3.00e-02,-2.00e-02,
63,1.00e-02,2.00e-02,
64,-3.00e-02,6.00e-02,
65,5.00e-02,-2.00e-02,
66,1.00e-02,-2.00e-02,
67,1.00e-02,6.00e-02,
68,1.00e-02,2.00e-02,
69,3.00e-02,-2.00e-02,
70,1.00e-02,-2.00e-02,
71,1.00e-02,2.00e-02,
72,3.00e-02,2.00e-02,
73,5.00e-02,-2.00e-02,
74,-3.00e-02,2.00e-02,
75,1.00e-02,6.00e-02,
76,3.00e-02,-2.00e-02,
77,3.00e-02,-2.00e-02,
78,-3.00e-02,2.00e-02,
79,1.00e-02,2.00e-02,
80,3.00e-02,-2.00e-02,
81,1.00e-02,-2.00e-02,
82,-3.00e-02,6.00e-02,
83,3.00e-02,2.00e-02,
84,1.00e-02,-2.00e-02,
85,1.00e-02,2.00e-02,
86,1.00e-02,6.00e-02,
87,3.00e-02,-2.00e-02,
88,1.00e-02,-2.00e-02,
89,1.00e-02,2.00e-02,
90,1.00e-02,2.00e-02,
91,3.00e-02,-2.00e-02,
92,1.00e-02,-2.00e-02,
93,1.00e-02,2.00e-02,
94,1.00e-02,2.00e-02,
95,3.00e-02,-2.00e-02,
96,-3.00e-02,2.00e-02,
97,1.00e-02,6.00e-02,
98,3.00e-02,-2.00e-02,
99,1.00e-02,-2.00e-02,
100,-3.00e-02,2.00e-02,
101,1.00e-02,2.00e-02,
102,3.00e-02,-2.00e-02,
103,1.00e-02,-2.00e-02,
104,-3.00e-02,2.00e-02,
105,3.00e-02,2.00e-02,
106,3.00e-02,-2.00e-02,
107,1.00e-02,2.00e-02,
108,-3.00e-02,2.00e-02,
109,3.00e-02,-2.00e-02,
110,3.00e-02,-2.00e-02,
111,-3.00e-02,2.00e-02,
112,1.00e-02,2.00e-02,
113,5.00e-02,-2.00e-02,
114,1.00e-02,-2.00e-02,
115,1.00e-02,6.00e-02,
116,3.00e-02,2.00e-02,
117,3.00e-02,-2.00e-02,
118,1.00e-02,2.00e-02,
119,1.00e-02,2.00e-02,
120,1.00e-02,2.00e-02,
121,3.00e-02,-2.00e-02,
122,1.00e-02,2.00e-02,
123,1.00e-02,2.00e-02,
124,3.00e-02,-2.00e-02,
125,1.00e-02,-2.00e-02,
126,-3.00e-02,6.00e-02,
127,3.00e-02,2.00e-02,
128,3.00e-02,-2.00e-02,
129,1.00e-02,2.00e-02,
130,1.00e-02,6.00e-02,
131,3.00e-02,2.00e-02,
132,3.00e-02,-2.00e-02,
133,1.00e-02,2.00e-02,
134,1.00e-02,6.00e-02,
135,3.00e-02,-2.00e-02,
136,1.00e-02,-2.00e-02,
137,-3.00e-02,2.00e-02,
138,1.00e-02,2.00e-02,
139,3.00e-02,-2.00e-02,
140,1.00e-02,2.00e-02,
141,1.00e-02,2.00e-02,
142,3.00e-02,2.00e-02,
143,3.00e-02,-2.00e-02,
144,-3.00e-02,2.00e-02,
145,3.00e-02,6.00e-02,
146,3.00e-02,-2.00e-02,
147,1.00e-02,-2.00e-02,
148,-3.00e-02,2.00e-02,
149,3.00e-02,2.00e-02,
150,3.00e-02,-2.00e-02,
151,1.00e-02,-2.00e-02,
152,-3.00e-02,6.00e-02,
153,5.00e-02,2.00e-02,
154,3.00e-02,-2.00e-02,
155,-3.00e-02,2.00e-02,
156,1.00e-02,2.00e-02,
157,5.00e-02,-2.00e-02,
158,3.00e-02,-2.00e-02,
159,-3.00e-02,2.00e-02,
160,1.00e-02,2.00e-02,
161,3.00e-02,-2.00e-02,
162,-3.00e-02,2.00e-02,
163,1.00e-02,6.00e-02,
164,1.00e-02,2.00e-02,
165,3.00e-02,-2.00e-02,
166,1.00e-02,2.00e-02,
167,1.00e-02,6.00e-02,
168,3.00e-02,-2.00e-02,
169,3.00e-02,-2.00e-02,
170,-3.00e-02,2.00e-02,
171,1.00e-02,2.00e-02,
172,3.00e-02,-2.00e-02,
173,1.00e-02,-2.00e-02,
174,-3.00e-02,6.00e-02,
175,3.00e-02,2.00e-02,
176,1.00e-02,-2.00e-02,
177,1.00e-02,2.00e-02,
178,1.00e-02,6.00e-02,
179,3.00e-02,-2.00e-02,
180,1.00e-02,-2.00e-02,
181,-3.00e-02,2.00e-02,
182,3.00e-02,2.00e-02,
183,3.00e-02,-2.00e-02,
184,-3.00e-02,2.00e-02,
185,1.00e-02,6.00e-02,
186,1.00e-02,2.00e-02,
187,3.00e-02,-2.00e-02,
188,-3.00e-02,2.00e-02,
189,1.00e-02,6.00e-02,
190,3.00e-02,-2.00e-02,
191,1.00e-02,-2.00e-02,
192,-3.00e-02,2.00e-02,
193,3.00e-02,2.00e-02,
194,3.00e-02,-2.00e-02,
195,1.00e-02,2.00e-02,
196,-3.00e-02,6.00e-02,
197,3.00e-02,2.00e-02,
198,3.00e-02,-2.00e-02,
199,1.00e-02,2.00e-02,
200,-3.00e-02,6.00e-02,
201,5.00e-02,-2.00e-02,
202,1.00e-02,-2.00e-02,
203,-3.00e-02,2.00e-02,
204,1.00e-02,2.00e-02,
205,5.00e-02,-2.00e-02,
206,1.00e-02,2.00e-02,
207,1.00e-02,6.00e-02,
208,1.00e-02,2.00e-02,
209,5.00e-02,-2.00e-02,
210,-3.00e-02,2.00e-02,
211,1.00e-02,2.00e-02,
212,3.00e-02,2.00e-02,
213,1.00e-02,-2.00e-02,
214,-3.00e-02,6.00e-02,
215,1.00e-02,2.00e-02,
216,3.00e-02,-2.00e-02,
217,1.00e-02,-2.00e-02,
218,1.00e-02,2.00e-02,
219,3.00e-02,2.00e-02,
220,1.00e-02,-2.00e-02,
221,1.00e-02,2.00e-02,
222,1.00e-02,6.00e-02,
223,3.00e-02,-2.00e-02,
224,1.00e-02,-2.00e-02,
225,1.00e-02,2.00e-02,
226,1.00e-02,2.00e-02,
227,3.00e-02,-2.00e-02,
228,-3.00e-02,-2.00e-02,
229,1.00e-02,2.00e-02,
230,3.00e-02,2.00e-02,
231,3.00e-02,-2.00e-02,
232,-3.00e-02,2.00e-02,
233,1.00e-02,2.00e-02,
234,3.00e-02,-2.00e-02,
235,3.00e-02,-2.00e-02,
236,-5.00e-02,2.00e-02,
237,3.00e-02,2.00e-02,
238,3.00e-02,-2.00e-02,
239,3.00e-02,-2.00e-02,
240,-3.00e-02,2.00e-02,
241,3.00e-02,2.00e-02,
242,3.00e-02,-2.00e-02,
243,-3.00e-02,2.00e-02,
244,-3.00e-02,2.00e-02,
245,3.00e-02,2.00e-02,
246,3.00e-02,-2.00e-02,
247,-3.00e-02,6.00e-02,
248,1.00e-02,2.00e-02,
249,5.00e-02,-2.00e-02,
250,1.00e-02,-2.00e-02,
251,-3.00e-02,2.00e-02,
252,1.00e-02,2.00e-02,
253,3.00e-02,-2.00e-02,
254,-3.00e-02,-2.00e-02,
255,1.00e-02,6.00e-02,
256,1.00e-02,-2.00e-02,
257,3.00e-02,-2.00e-02,
258,-3.00e-02,6.00e-02,
259,1.00e-02,2.00e-02,
260,3.00e-02,-2.00e-02,
261,1.00e-02,-2.00e-02,
262,-3.00e-02,6.00e-02,
263,3.00e-02,2.00e-02,
264,3.00e-02,-2.00e-02,
265,1.00e-02,2.00e-02,
266,1.00e-02,6.00e-02,
267,3.00e-02,2.00e-02,
268,1.00e-02,-2.00e-02,
269,1.00e-02,2.00e-02,
270,1.00e-02,2.00e-02,
271,3.00e-02,-2.00e-02,
272,1.00e-02,-2.00e-02,
273,-3.00e-02,2.00e-02,
274,3.00e-02,2.00e-02,
275,3.00e-02,-2.00e-02,
276,-3.00e-02,2.00e-02,
277,1.00e-02,2.00e-02,
278,3.00e-02,2.00e-02,
279,3.00e-02,-2.00e-02,
280,-3.00e-02,2.00e-02,
281,1.00e-02,2.00e-02,
282,3.00e-02,-2.00e-02,
283,1.00e-02,-2.00e-02,
284,-3.00e-02,2.00e-02,
285,3.00e-02,2.00e-02,
286,3.00e-02,-2.00e-02,
287,1.00e-02,2.00e-02,
288,-3.00e-02,2.00e-02,
289,5.00e-02,2.00e-02,
290,3.00e-02,-2.00e-02,
291,-3.00e-02,2.00e-02,
292,1.00e-02,2.00e-02,
293,5.00e-02,-2.00e-02,
294,1.00e-02,-2.00e-02,
295,-3.00e-02,2.00e-02,
296,1.00e-02,2.00e-02,
297,3.00e-02,-2.00e-02,
298,1.00e-02,2.00e-02,
299,1.00e-02,6.00e-02,
300,3.00e-02,2.00e-02,
301,3.00e-02,-2.00e-02,
302,-3.00e-02,2.00e-02,
303,1.00e-02,2.00e-02,
304,3.00e-02,-2.00e-02,
305,3.00e-02,-2.00e-02,
306,-3.00e-02,2.00e-02,
307,3.00e-02,2.00e-02,
308,3.00e-02,-2.00e-02,
309,1.00e-02,2.00e-02,
310,1.00e-02,6.00e-02,
311,3.00e-02,2.00e-02,
312,1.00e-02,-2.00e-02,
313,-3.00e-02,2.00e-02,
314,1.00e-02,6.00e-02,
315,3.00e-02,-2.00e-02,
316,1.00e-02,-2.00e-02,
317,-3.00e-02,2.00e-02,
318,3.00e-02,2.00e-02,
319,3.00e-02,-2.00e-02,
320,-3.00e-02,2.00e-02,
321,1.00e-02,2.00e-02,
322,3.00e-02,2.00e-02,
323,3.00e-02,-2.00e-02,
324,-5.00e-02,2.00e-02,
325,1.00e-02,2.00e-02,
326,3.00e-02,-2.00e-02,
327,1.00e-02,-2.00e-02,
328,-3.00e-02,2.00e-02,
329,3.00e-02,2.00e-02,
330,3.00e-02,-2.00e-02,
331,1.00e-02,2.00e-02,
332,-3.00e-02,6.00e-02,
333,3.00e-02,2.00e-02,
334,3.00e-02,-2.00e-02,
335,-3.00e-02,2.00e-02,
336,1.00e-02,2.00e-02,
337,3.00e-02,-2.00e-02,
338,3.00e-02,-2.00e-02,
339,-3.00e-02,6.00e-02,
340,1.00e-02,2.00e-02,
341,5.00e-02,-2.00e-02,
342,1.00e-02,2.00e-02,
343,1.00e-02,6.00e-02,
344,3.00e-02,2.00e-02,
345,5.00e-02,-2.00e-02,
346,-3.00e-02,2.00e-02,
347,3.00e-02,6.00e-02,
348,-5.00e-02,-2.00e-02,
349,-2.10e-01,-2.00e-02,
350,-4.10e-01,2.00e-02,
351,-6.30e-01,2.00e-02,
352,-8.50e-01,-2.00e-02,
353,-1.03e+00,-2.00e-02,
354,-1.21e+00,6.00e-02,
355,-1.33e+00,2.00e-02,
356,-1.39e+00,-2.00e-02,
357,-1.39e+00,-2.00e-02,
358,-1.41e+00,2.00e-02,
359,-1.43e+00,2.00e-02,
360,-1.43e+00,2.00e-02,
361,-1.43e+00,-2.00e-02,
362,-1.43e+00,2.00e-02,
363,-1.45e+00,2.00e-02,
364,-1.45e+00,2.00e-02,
365,-1.45e+00,-2.00e-02,
366,-1.45e+00,-2.00e-02,
367,-1.47e+00,2.00e-02,
368,-1.47e+00,2.00e-02,
369,-1.45e+00,-2.00e-02,
370,-1.45e+00,-2.00e-02,
371,-1.47e+00,2.00e-02,
372,-1.47e+00,2.00e-02,
373,-1.47e+00,2.00e-02,
374,-1.47e+00,2.00e-02,
375,-1.45e+00,-2.00e-02,
376,-1.45e+00,-2.00e-02,
377,-1.45e+00,2.00e-02,
378,-1.45e+00,2.00e-02,
379,-1.45e+00,2.00e-02,
380,-1.43e+00,2.00e-02,
381,-1.41e+00,2.00e-02,
382,-1.43e+00,2.00e-02,
383,-1.41e+00,2.00e-02,
384,-1.41e+00,-2.00e-02,
385,-1.39e+00,2.00e-02,
386,-1.39e+00,2.00e-02,
387,-1.39e+00,2.00e-02,
388,-1.37e+00,2.00e-02,
389,-1.35e+00,-2.00e-02,
390,-1.35e+00,2.00e-02,
391,-1.37e+00,2.00e-02,
392,-1.35e+00,2.00e-02,
393,-1.35e+00,-2.00e-02,
394,-1.35e+00,-2.00e-02,
395,-1.35e+00,2.00e-02,
396,-1.33e+00,2.00e-02,
397,-1.35e+00,2.00e-02,
398,-1.33e+00,2.00e-02,
399,-1.33e+00,2.00e-02,
400,-1.33e+00,2.00e-02,
401,-1.33e+00,2.00e-02,
402,-1.33e+00,2.00e-02,
403,-1.33e+00,2.00e-02,
404,-1.33e+00,2.00e-02,
405,-1.33e+00,2.00e-02,
406,-1.33e+00,2.00e-02,
407,-1.33e+00,-2.00e-02,
408,-1.33e+00,2.00e-02,
409,-1.31e+00,2.00e-02,
410,-1.33e+00,2.00e-02,
411,-1.33e+00,2.00e-02,
412,-1.33e+00,-2.00e-02,
413,-1.31e+00,-2.00e-02,
414,-1.33e+00,2.00e-02,
415,-1.33e+00,2.00e-02,
416,-1.33e+00,-2.00e-02,
417,-1.31e+00,2.00e-02,
418,-1.33e+00,2.00e-02,
419,-1.33e+00,2.00e-02,
420,-1.33e+00,2.00e-02,
421,-1.31e+00,-2.00e-02,
422,-1.31e+00,2.00e-02,
423,-1.33e+00,2.00e-02,
424,-1.33e+00,2.00e-02,
425,-1.33e+00,2.00e-02,
426,-1.33e+00,-2.00e-02,
427,-1.33e+00,2.00e-02,
428,-1.33e+00,2.00e-02,
429,-1.33e+00,2.00e-02,
430,-1.33e+00,2.00e-02,
431,-1.31e+00,2.00e-02,
432,-1.33e+00,2.00e-02,
433,-1.33e+00,2.00e-02,
434,-1.33e+00,2.00e-02,
435,-1.33e+00,2.00e-02,
436,-1.31e+00,2.00e-02,
437,-1.31e+00,2.00e-02,
438,-1.33e+00,2.00e-02,
439,-1.33e+00,2.00e-02,
440,-1.31e+00,-2.00e-02,
441,-1.31e+00,-2.00e-02,
442,-1.33e+00,2.00e-02,
443,-1.33e+00,2.00e-02,
444,-1.33e+00,2.00e-02,
445,-1.31e+00,2.00e-02,
446,-1.33e+00,2.00e-02,
447,-1.33e+00,2.00e-02,
448,-1.31e+00,2.00e-02,
449,-1.31e+00,2.00e-02,
450,-1.33e+00,2.00e-02,
451,-1.33e+00,2.00e-02,
452,-1.33e+00,2.00e-02,
453,-1.33e+00,2.00e-02,
454,-1.31e+00,-2.00e-02,
455,-1.33e+00,2.00e-02,
456,-1.33e+00,2.00e-02,
457,-1.31e+00,-2.00e-02,
458,-1.33e+00,2.00e-02,
459,-1.33e+00,2.00e-02,
460,-1.33e+00,2.00e-02,
461,-1.33e+00,-2.00e-02,
462,-1.33e+00,2.00e-02,
463,-1.33e+00,2.00e-02,
464,-1.31e+00,2.00e-02,
465,-1.31e+00,2.00e-02,
466,-1.33e+00,2.00e-02,
467,-1.33e+00,2.00e-02,
468,-1.33e+00,2.00e-02,
469,-1.31e+00,2.00e-02,
470,-1.33e+00,2.00e-02,
471,-1.33e+00,2.00e-02,
472,-1.33e+00,2.00e-02,
473,-1.31e+00,2.00e-02,
474,-1.33e+00,2.00e-02,
475,-1.31e+00,2.00e-02,
476,-1.33e+00,2.00e-02,
477,-1.33e+00,2.00e-02,
478,-1.31e+00,2.00e-02,
479,-1.33e+00,2.00e-02,
480,-1.31e+00,2.00e-02,
481,-1.31e+00,2.00e-02,
482,-1.33e+00,2.00e-02,
483,-1.33e+00,2.00e-02,
484,-1.33e+00,2.00e-02,
485,-1.31e+00,2.00e-02,
486,-1.31e+00,2.00e-02,
487,-1.33e+00,2.00e-02,
488,-1.33e+00,2.00e-02,
489,-1.31e+00,2.00e-02,
490,-1.31e+00,2.00e-02,
491,-1.31e+00,2.00e-02,
492,-1.33e+00,2.00e-02,
493,-1.31e+00,2.00e-02,
494,-1.31e+00,2.00e-02,
495,-1.31e+00,2.00e-02,
496,-1.33e+00,2.00e-02,
497,-1.31e+00,2.00e-02,
498,-1.33e+00,2.00e-02,
499,-1.31e+00,2.00e-02,
500,-1.33e+00,2.00e-02,
501,-1.31e+00,2.00e-02,
502,-1.31e+00,2.00e-02,
503,-1.31e+00,2.00e-02,
504,-1.33e+00,2.00e-02,
505,-1.31e+00,2.00e-02,
506,-1.31e+00,2.00e-02,
507,-1.33e+00,2.00e-02,
508,-1.33e+00,2.00e-02,
509,-1.31e+00,2.00e-02,
510,-1.31e+00,2.00e-02,
511,-1.31e+00,2.00e-02,
512,-1.33e+00,2.00e-02,
513,-1.31e+00,-2.00e-02,
514,-1.33e+00,2.00e-02,
515,-1.33e+00,2.00e-02,
516,-1.31e+00,2.00e-02,
517,-1.31e+00,2.00e-02,
518,-1.31e+00,2.00e-02,
519,-1.31e+00,2.00e-02,
520,-1.33e+00,2.00e-02,
521,-1.31e+00,2.00e-02,
522,-1.19e+00,2.00e-02,
523,-6.30e-01,6.00e-02,
524,-3.00e-02,2.00e-02,
525,5.00e-02,-2.00e-02,
526,-1.10e-01,2.00e-02,
527,-7.00e-02,2.00e-02,
528,-3.00e-02,2.00e-02,
529,3.00e-02,6.00e-02,
530,3.00e-02,-2.00e-02,
531,-3.00e-02,-2.00e-02,
532,-5.00e-02,2.00e-02,
533,3.00e-02,2.00e-02,
534,5.00e-02,-2.00e-02,
535,-3.00e-02,-2.00e-02,
536,-5.00e-02,2.00e-02,
537,5.00e-02,2.00e-02,
538,3.00e-02,-2.00e-02,
539,-5.00e-02,2.00e-02,
540,-3.00e-02,2.00e-02,
541,7.00e-02,-2.00e-02,
542,-3.00e-02,2.00e-02,
543,-5.00e-02,2.00e-02,
544,5.00e-02,2.00e-02,
545,5.00e-02,-2.00e-02,
546,-5.00e-02,2.00e-02,
547,1.00e-02,6.00e-02,
548,5.00e-02,-2.00e-02,
549,-3.00e-02,-2.00e-02,
550,-5.00e-02,6.00e-02,
551,5.00e-02,2.00e-02,
552,3.00e-02,-2.00e-02,
553,-5.00e-02,2.00e-02,
554,3.00e-02,2.00e-02,
555,5.00e-02,-2.00e-02,
556,-5.00e-02,2.00e-02,
557,-3.00e-02,2.00e-02,
558,5.00e-02,2.00e-02,
559,3.00e-02,-2.00e-02,
560,-7.00e-02,2.00e-02,
561,3.00e-02,2.00e-02,
562,7.00e-02,-2.00e-02,
563,-5.00e-02,2.00e-02,
564,-3.00e-02,2.00e-02,
565,7.00e-02,-2.00e-02,
566,1.00e-02,-2.00e-02,
567,-5.00e-02,6.00e-02,
568,3.00e-02,2.00e-02,
569,7.00e-02,-2.00e-02,
570,-5.00e-02,2.00e-02,
571,1.00e-02,2.00e-02,
572,5.00e-02,-2.00e-02,
573,3.00e-02,-2.00e-02,
574,-5.00e-02,6.00e-02,
575,5.00e-02,2.00e-02,
576,5.00e-02,-2.00e-02,
577,-5.00e-02,2.00e-02,
578,1.00e-02,2.00e-02,
579,7.00e-02,-2.00e-02,
580,-3.00e-02,-2.00e-02,
581,-5.00e-02,2.00e-02,
582,5.00e-02,2.00e-02,
583,5.00e-02,-2.00e-02,
584,-7.00e-02,2.00e-02,
585,3.00e-02,2.00e-02,
586,7.00e-02,-2.00e-02,
587,1.00e-02,2.00e-02,
588,-5.00e-02,6.00e-02,
589,5.00e-02,-2.00e-02,
590,5.00e-02,-2.00e-02,
591,-5.00e-02,2.00e-02,
592,3.00e-02,2.00e-02,
593,7.00e-02,-2.00e-02,
594,-3.00e-02,-2.00e-02,
595,-3.00e-02,6.00e-02,
596,5.00e-02,2.00e-02,
597,5.00e-02,-2.00e-02,
598,-5.00e-02,2.00e-02,
599,3.00e-02,2.00e-02,
600,5.00e-02,-2.00e-02,
601,1.00e-02,2.00e-02,
602,-3.00e-02,6.00e-02,
603,5.00e-02,-2.00e-02,
604,3.00e-02,-2.00e-02,
605,-5.00e-02,6.00e-02,
606,3.00e-02,2.00e-02,
607,7.00e-02,-2.00e-02,
608,-5.00e-02,2.00e-02,
609,-3.00e-02,2.00e-02,
610,5.00e-02,-2.00e-02,
611,3.00e-02,-2.00e-02,
612,-5.00e-02,6.00e-02,
613,3.00e-02,2.00e-02,
614,5.00e-02,-2.00e-02,
615,-3.00e-02,2.00e-02,
616,-5.00e-02,6.00e-02,
617,5.00e-02,-2.00e-02,
618,3.00e-02,-2.00e-02,
619,-5.00e-02,6.00e-02,
620,1.00e-02,2.00e-02,
621,7.00e-02,-6.00e-02,
622,-3.00e-02,2.00e-02,
623,1.00e-02,6.00e-02,
624,5.00e-02,-2.00e-02,
625,3.00e-02,-2.00e-02,
626,-5.00e-02,2.00e-02,
627,3.00e-02,2.00e-02,
628,5.00e-02,-2.00e-02,
629,-3.00e-02,2.00e-02,
630,-3.00e-02,6.00e-02,
631,5.00e-02,-2.00e-02,
632,3.00e-02,-2.00e-02,
633,-5.00e-02,2.00e-02,
634,3.00e-02,2.00e-02,
635,7.00e-02,-2.00e-02,
636,-3.00e-02,2.00e-02,
637,-3.00e-02,6.00e-02,
638,5.00e-02,-2.00e-02,
639,3.00e-02,-2.00e-02,
640,-5.00e-02,2.00e-02,
641,3.00e-02,2.00e-02,
642,5.00e-02,-2.00e-02,
643,-3.00e-02,2.00e-02,
644,-3.00e-02,6.00e-02,
645,5.00e-02,-2.00e-02,
646,3.00e-02,-2.00e-02,
647,-3.00e-02,2.00e-02,
648,1.00e-02,2.00e-02,
649,7.00e-02,-2.00e-02,
650,-3.00e-02,2.00e-02,
651,-3.00e-02,6.00e-02,
652,5.00e-02,-2.00e-02,
653,5.00e-02,-2.00e-02,
654,-5.00e-02,2.00e-02,
655,3.00e-02,6.00e-02,
656,3.00e-02,-2.00e-02,
657,1.00e-02,-2.00e-02,
658,-3.00e-02,6.00e-02,
659,5.00e-02,-2.00e-02,
660,3.00e-02,-2.00e-02,
661,-3.00e-02,2.00e-02,
662,1.00e-02,2.00e-02,
663,5.00e-02,-2.00e-02,
664,1.00e-02,-2.00e-02,
665,1.00e-02,6.00e-02,
666,3.00e-02,2.00e-02,
667,5.00e-02,-2.00e-02,
668,-5.00e-02,2.00e-02,
669,3.00e-02,2.00e-02,
670,5.00e-02,-2.00e-02,
671,1.00e-02,-2.00e-02,
672,-5.00e-02,6.00e-02,
673,5.00e-02,2.00e-02,
674,5.00e-02,-2.00e-02,
675,-3.00e-02,2.00e-02,
676,-3.00e-02,2.00e-02,
677,7.00e-02,-2.00e-02,
678,3.00e-02,-2.00e-02,
679,-3.00e-02,6.00e-02,
680,3.00e-02,2.00e-02,
681,5.00e-02,-2.00e-02,
682,-3.00e-02,2.00e-02,
683,-3.00e-02,6.00e-02,
684,3.00e-02,-2.00e-02,
685,3.00e-02,-2.00e-02,
686,-3.00e-02,6.00e-02,
687,3.00e-02,2.00e-02,
688,3.00e-02,-2.00e-02,
689,1.00e-02,2.00e-02,
690,-3.00e-02,6.00e-02,
691,5.00e-02,-2.00e-02,
692,3.00e-02,-2.00e-02,
693,-3.00e-02,2.00e-02,
694,1.00e-02,2.00e-02,
695,5.00e-02,-2.00e-02,
696,-3.00e-02,2.00e-02,
697,1.00e-02,6.00e-02,
698,3.00e-02,2.00e-02,
699,5.00e-02,-2.00e-02,
700,-5.00e-02,2.00e-02,
701,1.00e-02,2.00e-02,
702,5.00e-02,-2.00e-02,
703,1.00e-02,-2.00e-02,
704,-5.00e-02,6.00e-02,
705,5.00e-02,2.00e-02,
706,3.00e-02,-6.00e-02,
707,-3.00e-02,2.00e-02,
708,-3.00e-02,6.00e-02,
709,7.00e-02,-2.00e-02,
710,3.00e-02,-2.00e-02,
711,-3.00e-02,2.00e-02,
712,3.00e-02,2.00e-02,
713,5.00e-02,-2.00e-02,
714,-3.00e-02,2.00e-02,
715,1.00e-02,6.00e-02,
716,5.00e-02,-2.00e-02,
717,3.00e-02,-2.00e-02,
718,-5.00e-02,2.00e-02,
719,3.00e-02,2.00e-02,
720,3.00e-02,-2.00e-02,
721,1.00e-02,-2.00e-02,
722,-3.00e-02,6.00e-02,
723,5.00e-02,-2.00e-02,
724,3.00e-02,-2.00e-02,
725,-3.00e-02,2.00e-02,
726,1.00e-02,2.00e-02,
727,5.00e-02,-2.00e-02,
728,-3.00e-02,2.00e-02,
729,-3.00e-02,6.00e-02,
730,3.00e-02,2.00e-02,
731,3.00e-02,-2.00e-02,
732,-3.00e-02,2.00e-02,
733,1.00e-02,2.00e-02,
734,5.00e-02,-2.00e-02,
735,3.00e-02,-2.00e-02,
736,-5.00e-02,6.00e-02,
737,3.00e-02,2.00e-02,
738,5.00e-02,-2.00e-02,
739,-3.00e-02,2.00e-02,
740,-3.00e-02,6.00e-02,
741,5.00e-02,-2.00e-02,
742,3.00e-02,-2.00e-02,
743,-3.00e-02,2.00e-02,
744,1.00e-02,2.00e-02,
745,5.00e-02,-2.00e-02,
746,1.00e-02,-2.00e-02,
747,-3.00e-02,6.00e-02,
748,3.00e-02,2.00e-02,
749,5.00e-02,-2.00e-02,
750,-3.00e-02,2.00e-02,
751,3.00e-02,6.00e-02,
752,3.00e-02,-2.00e-02,
753,3.00e-02,-2.00e-02,
754,-3.00e-02,6.00e-02,
755,5.00e-02,2.00e-02,
756,3.00e-02,-2.00e-02,
757,1.00e-02,2.00e-02,
758,-3.00e-02,6.00e-02,
759,5.00e-02,-2.00e-02,
760,1.00e-02,-2.00e-02,
761,-3.00e-02,2.00e-02,
762,3.00e-02,2.00e-02,
763,5.00e-02,-2.00e-02,
764,-3.00e-02,-2.00e-02,
765,1.00e-02,6.00e-02,
766,3.00e-02,2.00e-02,
767,3.00e-02,-2.00e-02,
768,-5.00e-02,2.00e-02,
769,1.00e-02,2.00e-02,
770,5.00e-02,-2.00e-02,
771,1.00e-02,-2.00e-02,
772,-5.00e-02,6.00e-02,
773,3.00e-02,2.00e-02,
774,5.00e-02,-2.00e-02,
775,-3.00e-02,2.00e-02,
776,-3.00e-02,2.00e-02,
777,5.00e-02,-2.00e-02,
778,3.00e-02,-2.00e-02,
779,-3.00e-02,2.00e-02,
780,1.00e-02,2.00e-02,
781,5.00e-02,-2.00e-02,
782,1.00e-02,2.00e-02,
783,1.00e-02,2.00e-02,
784,3.00e-02,2.00e-02,
785,5.00e-02,-2.00e-02,
786,-3.00e-02,2.00e-02,
787,1.00e-02,2.00e-02,
788,3.00e-02,-2.00e-02,
789,3.00e-02,-2.00e-02,
790,-3.00e-02,6.00e-02,
791,3.00e-02,2.00e-02,
792,3.00e-02,-2.00e-02,
793,1.00e-02,2.00e-02,
794,1.00e-02,6.00e-02,
795,5.00e-02,-2.00e-02,
796,3.00e-02,-2.00e-02,
797,-3.00e-02,6.00e-02,
798,1.00e-02,2.00e-02,
799,5.00e-02,-2.00e-02,
800,-3.00e-02,-2.00e-02,
801,1.00e-02,6.00e-02,
802,5.00e-02,2.00e-02,
803,3.00e-02,-2.00e-02,
804,-3.00e-02,2.00e-02,
805,1.00e-02,6.00e-02,
806,5.00e-02,-2.00e-02,
807,1.00e-02,-2.00e-02,
808,-5.00e-02,6.00e-02,
809,5.00e-02,2.00e-02,
810,5.00e-02,-2.00e-02,
811,1.00e-02,2.00e-02,
812,1.00e-02,6.00e-02,
813,5.00e-02,-2.00e-02,
814,3.00e-02,-2.00e-02,
815,-3.00e-02,2.00e-02,
816,1.00e-02,2.00e-02,
817,5.00e-02,-2.00e-02,
818,1.00e-02,2.00e-02,
819,-3.00e-02,6.00e-02,
820,3.00e-02,2.00e-02,
821,5.00e-02,-2.00e-02,
822,-3.00e-02,2.00e-02,
823,1.00e-02,2.00e-02,
824,3.00e-02,-2.00e-02,
825,3.00e-02,-2.00e-02,
826,-3.00e-02,6.00e-02,
827,3.00e-02,2.00e-02,
828,3.00e-02,-6.00e-02,
829,1.00e-02,2.00e-02,
830,1.00e-02,6.00e-02,
831,3.00e-02,-2.00e-02,
832,3.00e-02,-2.00e-02,
833,-3.00e-02,2.00e-02,
834,1.00e-02,2.00e-02,
835,5.00e-02,-2.00e-02,
836,1.00e-02,-2.00e-02,
837,-3.00e-02,6.00e-02,
838,3.00e-02,2.00e-02,
839,5.00e-02,-2.00e-02,
840,-3.00e-02,2.00e-02,
841,1.00e-02,2.00e-02,
