RawData/attenuator/NewFile4.csv

X,CH1,CH2,Start,Increment,
Sequence,Volt,Volt,-3.840000e-07,2.000000e-09
0,-4.00e-02,0.00e+00,
1,0.00e+00,-8.00e-03,
2,-4.00e-02,0.00e+00,
3,-8.00e-02,0.00e+00,
4,0.00e+00,-8.00e-03,
5,-4.00e-02,0.00e+00,
6,-4.00e-02,0.00e+00,
7,-4.00e-02,0.00e+00,
8,-4.00e-02,0.00e+00,
9,0.00e+00,-8.00e-03,
10,-4.00e-02,0.00e+00,
11,-4.00e-02,0.00e+00,
12,0.00e+00,0.00e+00,
13,-4.00e-02,0.00e+00,
14,-4.00e-02,0.00e+00,
15,-4.00e-02,0.00e+00,
16,-4.00e-02,0.00e+00,
17,-4.00e-02,0.00e+00,
18,-4.00e-02,0.00e+00,
19,-4.00e-02,0.00e+00,
20,-4.00e-02,0.00e+00,
21,-4.00e-02,0.00e+00,
22,-4.00e-02,0.00e+00,
23,-4.00e-02,0.00e+00,
24,-4.00e-02,0.00e+00,
25,-4.00e-02,0.00e+00,
26,-4.00e-02,0.00e+00,
27,-4.00e-02,0.00e+00,
28,-4.00e-02,0.00e+00,
29,-4.00e-02,0.00e+00,
30,-4.00e-02,0.00e+00,
31,-4.00e-02,0.00e+00,
32,-4.00e-02,0.00e+00,
33,-4.00e-02,0.00e+00,
34,-4.00e-02,0.00e+00,
35,-4.00e-02,0.00e+00,
36,-4.00e-02,0.00e+00,
37,-4.00e-02,0.00e+00,
38,-4.00e-02,0.00e+00,
39,-4.00e-02,0.00e+00,
40,-4.00e-02,0.00e+00,
41,-4.00e-02,0.00e+00,
42,-4.00e-02,0.00e+00,
43,-4.00e-02,0.00e+00,
44,-4.00e-02,0.00e+00,
45,-4.00e-02,0.00e+00,
46,-4.00e-02,0.00e+00,
47,-4.00e-02,0.00e+00,
48,-4.00e-02,0.00e+00,
49,-4.00e-02,0.00e+00,
50,-4.00e-02,0.00e+00,
51,-4.00e-02,0.00e+00,
52,-4.00e-02,0.00e+00,
53,-4.00e-02,0.00e+00,
54,-4.00e-02,0.00e+00,
55,-4.00e-02,0.00e+00,
56,-4.00e-02,0.00e+00,
57,-4.00e-02,0.00e+00,
58,-4.00e-02,0.00e+00,
59,-4.00e-02,0.00e+00,
60,-4.00e-02,0.00e+00,
61,-4.00e-02,0.00e+00,
62,-4.00e-02,0.00e+00,
63,-4.00e-02,0.00e+00,
64,-4.00e-02,0.00e+00,
65,-4.00e-02,0.00e+00,
66,-4.00e-02,0.00e+00,
67,-4.00e-02,0.00e+00,
68,-4.00e-02,0.00e+00,
69,-4.00e-02,0.00e+00,
70,-4.00e-02,0.00e+00,
71,-4.00e-02,0.00e+00,
72,-4.00e-02,0.00e+00,
73,-4.00e-02,0.00e+00,
74,-4.00e-02,0.00e+00,
75,-4.00e-02,0.00e+00,
76,-4.00e-02,0.00e+00,
77,-4.00e-02,0.00e+00,
78,-4.00e-02,0.00e+00,
79,-4.00e-02,0.00e+00,
80,-4.00e-02,0.00e+00,
81,-4.00e-02,0.00e+00,
82,-4.00e-02,0.00e+00,
83,-4.00e-02,0.00e+00,
84,-4.00e-02,0.00e+00,
85,-4.00e-02,0.00e+00,
86,-4.00e-02,0.00e+00,
87,-4.00e-02,0.00e+00,
88,-4.00e-02,0.00e+00,
89,-4.00e-02,0.00e+00,
90,-4.00e-02,0.00e+00,
91,-4.00e-02,0.00e+00,
92,-4.00e-02,0.00e+00,
93,-4.00e-02,0.00e+00,
94,-4.00e-02,0.00e+00,
95,-4.00e-02,0.00e+00,
96,-4.00e-02,0.00e+00,
97,-4.00e-02,0.00e+00,
98,-4.00e-02,0.00e+00,
99,-4.00e-02,0.00e+00,
100,-4.00e-02,0.00e+00,
101,-4.00e-02,0.00e+00,
102,-4.00e-02,0.00e+00,
103,-4.00e-02,0.00e+00,
104,0.00e+00,0.00e+00,
105,-4.00e-02,0.00e+00,
106,-4.00e-02,0.00e+00,
107,-4.00e-02,0.00e+00,
108,0.00e+00,0.00e+00,
109,-4.00e-02,0.00e+00,
110,-4.00e-02,0.00e+00,
111,-4.00e-02,0.00e+00,
112,-4.00e-02,0.00e+00,
113,-4.00e-02,0.00e+00,
114,-4.00e-02,0.00e+00,
115,-4.00e-02,0.00e+00,
116,-4.00e-02,0.00e+00,
117,-4.00e-02,0.00e+00,
118,-4.00e-02,0.00e+00,
119,-4.00e-02,0.00e+00,
120,-4.00e-02,0.00e+00,
121,-4.00e-02,0.00e+00,
122,-4.00e-02,0.00e+00,
123,-4.00e-02,0.00e+00,
124,-4.00e-02,0.00e+00,
125,-4.00e-02,0.00e+00,
126,-4.00e-02,0.00e+00,
127,-4.00e-02,0.00e+00,
128,-4.00e-02,0.00e+00,
129,-4.00e-02,0.00e+00,
130,-4.00e-02,0.00e+00,
131,-4.00e-02,0.00e+00,
132,-4.00e-02,0.00e+00,
133,-4.00e-02,0.00e+00,
134,-4.00e-02,0.00e+00,
135,-4.00e-02,0.00e+00,
136,-4.00e-02,0.00e+00,
137,-4.00e-02,0.00e+00,
138,-4.00e-02,0.00e+00,
139,-4.00e-02,0.00e+00,
140,-4.00e-02,0.00e+00,
141,-4.00e-02,0.00e+00,
142,-4.00e-02,0.00e+00,
143,-4.00e-02,0.00e+00,
144,-4.00e-02,0.00e+00,
145,-4.00e-02,0.00e+00,
146,-4.00e-02,0.00e+00,
147,-4.00e-02,0.00e+00,
148,-4.00e-02,0.00e+00,
149,-4.00e-02,0.00e+00,
150,-4.00e-02,0.00e+00,
151,-4.00e-02,0.00e+00,
152,-4.00e-02,0.00e+00,
153,-4.00e-02,0.00e+00,
154,-4.00e-02,0.00e+00,
155,-4.00e-02,0.00e+00,
156,-4.00e-02,0.00e+00,
157,-4.00e-02,0.00e+00,
158,-4.00e-02,0.00e+00,
159,-4.00e-02,0.00e+00,
160,-4.00e-02,0.00e+00,
161,-4.00e-02,0.00e+00,
162,-4.00e-02,0.00e+00,
163,-4.00e-02,0.00e+00,
164,-4.00e-02,0.00e+00,
165,-4.00e-02,0.00e+00,
166,-4.00e-02,0.00e+00,
167,-4.00e-02,0.00e+00,
168,-4.00e-02,0.00e+00,
169,-4.00e-02,0.00e+00,
170,-4.00e-02,0.00e+00,
171,-4.00e-02,0.00e+00,
172,-4.00e-02,0.00e+00,
173,-4.00e-02,0.00e+00,
174,-4.00e-02,0.00e+00,
175,-4.00e-02,0.00e+00,
176,-4.00e-02,0.00e+00,
177,-4.00e-02,0.00e+00,
178,-4.00e-02,0.00e+00,
179,-4.00e-02,0.00e+00,
180,-4.00e-02,0.00e+00,
181,-4.00e-02,0.00e+00,
182,-4.00e-02,0.00e+00,
183,-4.00e-02,0.00e+00,
184,-4.00e-02,0.00e+00,
185,-4.00e-02,0.00e+00,
186,-4.00e-02,0.00e+00,
187,-4.00e-02,0.00e+00,
188,0.00e+00,0.00e+00,
189,-4.00e-02,0.00e+00,
190,-4.00e-02,0.00e+00,
191,-4.00e-02,0.00e+00,
192,-3.20e-01,0.00e+00,
193,-1.32e+00,-8.00e-03,
194,-1.88e+00,-1.12e-01,
195,-1.96e+00,-4.48e-01,
196,-1.92e+00,-6.56e-01,
197,-2.04e+00,-7.12e-01,
198,-1.96e+00,-7.20e-01,
199,-1.92e+00,-6.96e-01,
200,-1.96e+00,-7.04e-01,
201,-1.92e+00,-7.28e-01,
202,-1.96e+00,-7.44e-01,
203,-2.08e+00,-7.60e-01,
204,-1.92e+00,-7.44e-01,
205,-2.04e+00,-7.60e-01,
206,-1.96e+00,-7.60e-01,
207,-2.04e+00,-7.60e-01,
208,-1.96e+00,-7.68e-01,
209,-1.96e+00,-7.60e-01,
210,-2.04e+00,-7.68e-01,
211,-2.04e+00,-7.60e-01,
212,-1.96e+00,-7.68e-01,
213,-2.04e+00,-7.68e-01,
214,-1.96e+00,-7.68e-01,
215,-2.04e+00,-7.68e-01,
216,-1.96e+00,-7.68e-01,
217,-1.96e+00,-7.68e-01,
218,-2.04e+00,-7.68e-01,
219,-2.04e+00,-7.68e-01,
220,-1.96e+00,-7.68e-01,
221,-2.04e+00,-7.68e-01,
222,-2.04e+00,-7.68e-01,
223,-2.04e+00,-7.68e-01,
224,-1.96e+00,-7.68e-01,
225,-2.04e+00,-7.68e-01,
226,-2.04e+00,-7.68e-01,
227,-2.04e+00,-7.68e-01,
228,-1.96e+00,-7.68e-01,
229,-2.04e+00,-7.68e-01,
230,-2.04e+00,-7.76e-01,
231,-2.04e+00,-7.68e-01,
232,-1.96e+00,-7.68e-01,
233,-2.04e+00,-7.68e-01,
234,-2.04e+00,-7.76e-01,
235,-2.04e+00,-7.68e-01,
236,-1.96e+00,-7.68e-01,
237,-2.04e+00,-7.68e-01,
238,-2.04e+00,-7.76e-01,
239,-2.04e+00,-7.68e-01,
240,-1.96e+00,-7.68e-01,
241,-2.04e+00,-7.68e-01,
242,-2.04e+00,-7.76e-01,
243,-2.08e+00,-7.68e-01,
244,-1.96e+00,-7.68e-01,
245,-2.04e+00,-7.76e-01,
246,-2.04e+00,-7.76e-01,
247,-2.04e+00,-7.76e-01,
248,-1.96e+00,-7.76e-01,
249,-2.04e+00,-7.76e-01,
250,-2.04e+00,-7.76e-01,
251,-2.04e+00,-7.76e-01,
252,-1.96e+00,-7.76e-01,
253,-2.04e+00,-7.76e-01,
254,-1.96e+00,-7.76e-01,
255,-2.04e+00,-7.76e-01,
256,-1.96e+00,-7.76e-01,
257,-2.04e+00,-7.76e-01,
258,-2.04e+00,-7.76e-01,
259,-2.04e+00,-7.76e-01,
260,-1.96e+00,-7.76e-01,
261,-2.04e+00,-7.76e-01,
262,-2.04e+00,-7.76e-01,
263,-2.04e+00,-7.76e-01,
264,-1.96e+00,-7.76e-01,
265,-2.04e+00,-7.76e-01,
266,-2.04e+00,-7.76e-01,
267,-2.04e+00,-7.76e-01,
268,-1.96e+00,-7.76e-01,
269,-2.04e+00,-7.76e-01,
270,-2.04e+00,-7.76e-01,
271,-2.04e+00,-7.76e-01,
272,-1.96e+00,-7.76e-01,
273,-2.04e+00,-7.76e-01,
274,-2.04e+00,-7.76e-01,
275,-2.04e+00,-7.76e-01,
276,-1.96e+00,-7.76e-01,
277,-2.04e+00,-7.76e-01,
278,-2.04e+00,-7.76e-01,
279,-2.04e+00,-7.76e-01,
280,-1.96e+00,-7.76e-01,
281,-2.04e+00,-7.76e-01,
282,-2.04e+00,-7.76e-01,
283,-2.04e+00,-7.76e-01,
284,-1.96e+00,-7.76e-01,
285,-2.04e+00,-7.76e-01,
286,-2.04e+00,-7.76e-01,
287,-2.04e+00,-7.76e-01,
288,-1.96e+00,-7.76e-01,
289,-2.04e+00,-7.76e-01,
290,-2.04e+00,-7.76e-01,
291,-2.04e+00,-7.76e-01,
292,-1.96e+00,-7.76e-01,
293,-2.04e+00,-7.76e-01,
294,-2.04e+00,-7.76e-01,
295,-2.04e+00,-7.76e-01,
296,-1.96e+00,-7.76e-01,
297,-2.04e+00,-7.76e-01,
298,-2.04e+00,-7.76e-01,
299,-2.04e+00,-7.76e-01,
300,-1.96e+00,-7.76e-01,
301,-2.04e+00,-7.76e-01,
302,-2.04e+00,-7.76e-01,
303,-2.04e+00,-7.76e-01,
304,-1.96e+00,-7.76e-01,
305,-2.04e+00,-7.76e-01,
306,-2.04e+00,-7.76e-01,
307,-2.04e+00,-7.76e-01,
308,-1.96e+00,-7.76e-01,
309,-2.04e+00,-7.76e-01,
310,-2.04e+00,-7.76e-01,
311,-2.04e+00,-7.76e-01,
312,-1.96e+00,-7.76e-01,
313,-2.04e+00,-7.76e-01,
314,-2.04e+00,-7.76e-01,
315,-2.04e+00,-7.76e-01,
316,-1.96e+00,-7.76e-01,
317,-2.04e+00,-7.76e-01,
318,-2.04e+00,-7.76e-01,
319,-2.04e+00,-7.76e-01,
320,-1.96e+00,-7.76e-01,
321,-2.04e+00,-7.76e-01,
322,-2.04e+00,-7.76e-01,
323,-2.04e+00,-7.76e-01,
324,-1.96e+00,-7.76e-01,
325,-2.04e+00,-7.76e-01,
326,-2.04e+00,-7.76e-01,
327,-2.04e+00,-7.76e-01,
328,-1.96e+00,-7.76e-01,
329,-2.04e+00,-7.76e-01,
330,-2.04e+00,-7.76e-01,
331,-2.04e+00,-7.76e-01,
332,-1.96e+00,-7.76e-01,
333,-2.04e+00,-7.76e-01,
334,-2.04e+00,-7.76e-01,
335,-2.04e+00,-7.76e-01,
336,-1.96e+00,-7.76e-01,
337,-2.04e+00,-7.76e-01,
338,-2.04e+00,-7.76e-01,
339,-2.04e+00,-7.76e-01,
340,-2.04e+00,-7.76e-01,
341,-2.04e+00,-7.76e-01,
342,-2.04e+00,-7.76e-01,
343,-2.04e+00,-7.76e-01,
344,-1.96e+00,-7.76e-01,
345,-2.04e+00,-7.76e-01,
346,-2.04e+00,-7.76e-01,
347,-2.08e+00,-7.76e-01,
348,-1.96e+00,-7.76e-01,
349,-2.04e+00,-7.76e-01,
350,-2.04e+00,-7.76e-01,
351,-2.04e+00,-7.76e-01,
352,-1.96e+00,-7.76e-01,
353,-2.04e+00,-7.76e-01,
354,-2.04e+00,-7.76e-01,
355,-2.04e+00,-7.76e-01,
356,-1.96e+00,-7.76e-01,
357,-2.04e+00,-7.76e-01,
358,-2.04e+00,-7.76e-01,
359,-2.04e+00,-7.76e-01,
360,-1.96e+00,-7.76e-01,
361,-2.04e+00,-7.76e-01,
362,-2.04e+00,-7.76e-01,
363,-2.04e+00,-7.76e-01,
364,-1.96e+00,-7.76e-01,
365,-2.04e+00,-7.76e-01,
366,-2.04e+00,-7.76e-01,
367,-2.04e+00,-7.76e-01,
368,-2.04e+00,-7.76e-01,
369,-2.04e+00,-7.76e-01,
370,-2.04e+00,-7.76e-01,
371,-2.04e+00,-7.76e-01,
372,-1.96e+00,-7.76e-01,
373,-2.04e+00,-7.76e-01,
374,-2.04e+00,-7.76e-01,
375,-2.04e+00,-7.76e-01,
376,-1.96e+00,-7.76e-01,
377,-2.04e+00,-7.76e-01,
378,-2.04e+00,-7.76e-01,
379,-2.08e+00,-7.76e-01,
380,-1.96e+00,-7.76e-01,
381,-2.04e+00,-7.76e-01,
382,-2.04e+00,-7.76e-01,
383,-2.04e+00,-7.76e-01,
384,-1.96e+00,-7.76e-01,
385,-2.04e+00,-7.76e-01,
386,-2.04e+00,-7.76e-01,
387,-2.04e+00,-7.76e-01,
388,-1.96e+00,-7.76e-01,
389,-2.04e+00,-7.76e-01,
390,-2.04e+00,-7.76e-01,
391,-2.04e+00,-7.76e-01,
392,-2.04e+00,-7.76e-01,
393,-2.04e+00,-7.76e-01,
394,-2.04e+00,-7.76e-01,
395,-2.08e+00,-7.76e-01,
396,-1.96e+00,-7.76e-01,
397,-2.04e+00,-7.76e-01,
398,-2.04e+00,-7.76e-01,
399,-2.04e+00,-7.76e-01,
400,-2.04e+00,-7.76e-01,
401,-1.96e+00,-7.76e-01,
402,-2.04e+00,-7.76e-01,
403,-2.08e+00,-7.76e-01,
404,-1.92e+00,-7.76e-01,
405,-2.08e+00,-7.76e-01,
406,-1.96e+00,-7.76e-01,
407,-2.04e+00,-7.76e-01,
408,-2.04e+00,-7.76e-01,
409,-1.96e+00,-7.76e-01,
410,-2.04e+00,-7.76e-01,
411,-2.04e+00,-7.76e-01,
412,-1.96e+00,-7.76e-01,
413,-2.04e+00,-7.76e-01,
414,-2.04e+00,-7.76e-01,
415,-2.04e+00,-7.76e-01,
416,-1.96e+00,-7.76e-01,
417,-2.04e+00,-7.76e-01,
418,-2.04e+00,-7.76e-01,
419,-2.08e+00,-7.76e-01,
420,-1.96e+00,-7.76e-01,
421,-2.04e+00,-7.76e-01,
422,-2.04e+00,-7.76e-01,
423,-2.04e+00,-7.76e-01,
424,-1.96e+00,-7.76e-01,
425,-2.04e+00,-7.76e-01,
426,-2.04e+00,-7.76e-01,
427,-2.04e+00,-7.76e-01,
428,-1.96e+00,-7.76e-01,
429,-2.04e+00,-7.76e-01,
430,-2.04e+00,-7.76e-01,
431,-2.04e+00,-7.76e-01,
432,-1.96e+00,-7.76e-01,
433,-2.04e+00,-7.76e-01,
434,-2.04e+00,-7.76e-01,
435,-2.08e+00,-7.76e-01,
436,-1.96e+00,-7.76e-01,
437,-2.04e+00,-7.76e-01,
438,-2.04e+00,-7.76e-01,
439,-2.04e+00,-7.76e-01,
440,-1.96e+00,-7.76e-01,
441,-2.04e+00,-7.76e-01,
442,-2.04e+00,-7.76e-01,
443,-2.04e+00,-7.76e-01,
444,-1.96e+00,-7.76e-01,
445,-2.04e+00,-7.76e-01,
446,-2.04e+00,-7.76e-01,
447,-2.04e+00,-7.76e-01,
448,-1.96e+00,-7.76e-01,
449,-2.04e+00,-7.76e-01,
450,-2.04e+00,-7.76e-01,
451,-2.04e+00,-7.76e-01,
452,-1.96e+00,-7.76e-01,
453,-2.04e+00,-7.76e-01,
454,-2.04e+00,-7.76e-01,
455,-2.04e+00,-7.76e-01,
456,-1.96e+00,-7.76e-01,
457,-2.04e+00,-7.76e-01,
458,-2.04e+00,-7.76e-01,
459,-2.04e+00,-7.76e-01,
460,-1.96e+00,-7.76e-01,
461,-2.04e+00,-7.76e-01,
462,-2.04e+00,-7.76e-01,
463,-2.04e+00,-7.76e-01,
464,-1.96e+00,-7.76e-01,
465,-2.04e+00,-7.76e-01,
466,-2.04e+00,-7.76e-01,
467,-2.04e+00,-7.76e-01,
468,-1.96e+00,-7.76e-01,
469,-2.04e+00,-7.76e-01,
470,-2.04e+00,-7.76e-01,
471,-2.04e+00,-7.76e-01,
472,-1.96e+00,-7.76e-01,
473,-2.04e+00,-7.76e-01,
474,-2.04e+00,-7.76e-01,
475,-2.04e+00,-7.76e-01,
476,-1.96e+00,-7.76e-01,
477,-2.04e+00,-7.76e-01,
478,-2.04e+00,-7.76e-01,
479,-2.04e+00,-7.76e-01,
480,-1.96e+00,-7.76e-01,
481,-2.04e+00,-7.76e-01,
482,-2.04e+00,-7.76e-01,
483,-2.04e+00,-7.76e-01,
484,-1.96e+00,-7.76e-01,
485,-2.04e+00,-7.76e-01,
486,-2.04e+00,-7.76e-01,
487,-2.04e+00,-7.76e-01,
488,-1.96e+00,-7.76e-01,
489,-1.96e+00,-7.76e-01,
490,-2.04e+00,-7.76e-01,
491,-2.04e+00,-7.76e-01,
492,-1.96e+00,-7.76e-01,
493,-2.04e+00,-7.76e-01,
494,-2.04e+00,-7.76e-01,
495,-2.08e+00,-7.76e-01,
496,-1.96e+00,-7.76e-01,
497,-2.04e+00,-7.76e-01,
498,-2.04e+00,-7.76e-01,
499,-2.08e+00,-7.76e-01,
500,-1.96e+00,-7.76e-01,
501,-2.04e+00,-7.76e-01,
502,-2.04e+00,-7.76e-01,
503,-2.04e+00,-7.76e-01,
504,-1.96e+00,-7.76e-01,
505,-2.04e+00,-7.76e-01,
506,-2.04e+00,-7.76e-01,
507,-2.08e+00,-7.76e-01,
508,-1.96e+00,-7.76e-01,
509,-2.04e+00,-7.76e-01,
510,-2.04e+00,-7.84e-01,
511,-2.04e+00,-7.76e-01,
512,-1.96e+00,-7.76e-01,
513,-2.04e+00,-7.76e-01,
514,-2.04e+00,-7.76e-01,
515,-2.04e+00,-7.76e-01,
516,-1.96e+00,-7.76e-01,
517,-2.04e+00,-7.76e-01,
518,-1.64e+00,-7.76e-01,
519,-6.80e-01,-7.68e-01,
520,-1.20e-01,-6.24e-01,
521,-4.00e-02,-3.04e-01,
522,-8.00e-02,-1.12e-01,
523,-8.00e-02,-5.60e-02,
524,-4.00e-02,-5.60e-02,
525,-8.00e-02,-8.00e-02,
526,-8.00e-02,-7.20e-02,
527,-8.00e-02,-5.60e-02,
528,-8.00e-02,-3.20e-02,
529,-4.00e-02,-3.20e-02,
530,-4.00e-02,-2.40e-02,
531,-4.00e-02,-2.40e-02,
532,-4.00e-02,-2.40e-02,
533,-4.00e-02,-2.40e-02,
534,-4.00e-02,-2.40e-02,
535,-8.00e-02,-2.40e-02,
536,-4.00e-02,-2.40e-02,
537,-4.00e-02,-2.40e-02,
538,-4.00e-02,-8.00e-03,
539,-4.00e-02,-2.40e-02,
540,-4.00e-02,-8.00e-03,
541,-4.00e-02,-2.40e-02,
542,-4.00e-02,-8.00e-03,
543,-4.00e-02,-8.00e-03,
544,-4.00e-02,-8.00e-03,
545,-4.00e-02,-8.00e-03,
546,-4.00e-02,-8.00e-03,
547,-8.00e-02,-8.00e-03,
548,-4.00e-02,-8.00e-03,
549,-4.00e-02,-8.00e-03,
550,-4.00e-02,-8.00e-03,
551,-4.00e-02,-8.00e-03,
552,-4.00e-02,-8.00e-03,
553,-4.00e-02,-8.00e-03,
554,-4.00e-02,-8.00e-03,
555,-4.00e-02,-8.00e-03,
556,-4.00e-02,-8.00e-03,
557,-4.00e-02,-8.00e-03,
558,-4.00e-02,-8.00e-03,
559,-4.00e-02,-8.00e-03,
560,-4.00e-02,-8.00e-03,
561,-4.00e-02,-8.00e-03,
562,-4.00e-02,-8.00e-03,
563,-4.00e-02,-8.00e-03,
564,-4.00e-02,-8.00e-03,
565,-4.00e-02,-8.00e-03,
566,-4.00e-02,-8.00e-03,
567,-4.00e-02,-8.00e-03,
568,-4.00e-02,-8.00e-03,
569,-4.00e-02,-8.00e-03,
570,-4.00e-02,-8.00e-03,
571,-4.00e-02,-8.00e-03,
572,-4.00e-02,-8.00e-03,
573,-4.00e-02,-8.00e-03,
574,-4.00e-02,-8.00e-03,
575,-4.00e-02,-8.00e-03,
576,-4.00e-02,-8.00e-03,
577,-4.00e-02,-8.00e-03,
578,-4.00e-02,-8.00e-03,
579,-4.00e-02,-8.00e-03,
580,-4.00e-02,-8.00e-03,
581,-4.00e-02,-8.00e-03,
582,-4.00e-02,-8.00e-03,
583,-4.00e-02,-8.00e-03,
584,-4.00e-02,-8.00e-03,
585,-4.00e-02,-8.00e-03,
586,-4.00e-02,-8.00e-03,
587,-8.00e-02,-8.00e-03,
588,-4.00e-02,-8.00e-03,
589,-4.00e-02,-8.00e-03,
590,-4.00e-02,-8.00e-03,
591,-4.00e-02,-8.00e-03,
592,-4.00e-02,-8.00e-03,
593,-4.00e-02,-8.00e-03,
594,-4.00e-02,-8.00e-03,
595,-4.00e-02,-8.00e-03,
596,-4.00e-02,-8.00e-03,
597,-4.00e-02,-8.00e-03,
598,-4.00e-02,-8.00e-03,
599,-4.00e-02,-8.00e-03,
